%!PS-Adobe-3.0
%%Creator: graphviz version 2.38.0 (20140413.2041)
%%Title: solution
%%Pages: (atend)
%%BoundingBox: (atend)
%%EndComments
save
%%BeginProlog
/DotDict 200 dict def
DotDict begin

/setupLatin1 {
mark
/EncodingVector 256 array def
 EncodingVector 0

ISOLatin1Encoding 0 255 getinterval putinterval
EncodingVector 45 /hyphen put

% Set up ISO Latin 1 character encoding
/starnetISO {
        dup dup findfont dup length dict begin
        { 1 index /FID ne { def }{ pop pop } ifelse
        } forall
        /Encoding EncodingVector def
        currentdict end definefont
} def
/Times-Roman starnetISO def
/Times-Italic starnetISO def
/Times-Bold starnetISO def
/Times-BoldItalic starnetISO def
/Helvetica starnetISO def
/Helvetica-Oblique starnetISO def
/Helvetica-Bold starnetISO def
/Helvetica-BoldOblique starnetISO def
/Courier starnetISO def
/Courier-Oblique starnetISO def
/Courier-Bold starnetISO def
/Courier-BoldOblique starnetISO def
cleartomark
} bind def

%%BeginResource: procset graphviz 0 0
/coord-font-family /Times-Roman def
/default-font-family /Times-Roman def
/coordfont coord-font-family findfont 8 scalefont def

/InvScaleFactor 1.0 def
/set_scale {
       dup 1 exch div /InvScaleFactor exch def
       scale
} bind def

% styles
/solid { [] 0 setdash } bind def
/dashed { [9 InvScaleFactor mul dup ] 0 setdash } bind def
/dotted { [1 InvScaleFactor mul 6 InvScaleFactor mul] 0 setdash } bind def
/invis {/fill {newpath} def /stroke {newpath} def /show {pop newpath} def} bind def
/bold { 2 setlinewidth } bind def
/filled { } bind def
/unfilled { } bind def
/rounded { } bind def
/diagonals { } bind def
/tapered { } bind def

% hooks for setting color 
/nodecolor { sethsbcolor } bind def
/edgecolor { sethsbcolor } bind def
/graphcolor { sethsbcolor } bind def
/nopcolor {pop pop pop} bind def

/beginpage {	% i j npages
	/npages exch def
	/j exch def
	/i exch def
	/str 10 string def
	npages 1 gt {
		gsave
			coordfont setfont
			0 0 moveto
			(\() show i str cvs show (,) show j str cvs show (\)) show
		grestore
	} if
} bind def

/set_font {
	findfont exch
	scalefont setfont
} def

% draw text fitted to its expected width
/alignedtext {			% width text
	/text exch def
	/width exch def
	gsave
		width 0 gt {
			[] 0 setdash
			text stringwidth pop width exch sub text length div 0 text ashow
		} if
	grestore
} def

/boxprim {				% xcorner ycorner xsize ysize
		4 2 roll
		moveto
		2 copy
		exch 0 rlineto
		0 exch rlineto
		pop neg 0 rlineto
		closepath
} bind def

/ellipse_path {
	/ry exch def
	/rx exch def
	/y exch def
	/x exch def
	matrix currentmatrix
	newpath
	x y translate
	rx ry scale
	0 0 1 0 360 arc
	setmatrix
} bind def

/endpage { showpage } bind def
/showpage { } def

/layercolorseq
	[	% layer color sequence - darkest to lightest
		[0 0 0]
		[.2 .8 .8]
		[.4 .8 .8]
		[.6 .8 .8]
		[.8 .8 .8]
	]
def

/layerlen layercolorseq length def

/setlayer {/maxlayer exch def /curlayer exch def
	layercolorseq curlayer 1 sub layerlen mod get
	aload pop sethsbcolor
	/nodecolor {nopcolor} def
	/edgecolor {nopcolor} def
	/graphcolor {nopcolor} def
} bind def

/onlayer { curlayer ne {invis} if } def

/onlayers {
	/myupper exch def
	/mylower exch def
	curlayer mylower lt
	curlayer myupper gt
	or
	{invis} if
} def

/curlayer 0 def

%%EndResource
%%EndProlog
%%BeginSetup
14 default-font-family set_font
1 setmiterlimit
% /arrowlength 10 def
% /arrowwidth 5 def

% make sure pdfmark is harmless for PS-interpreters other than Distiller
/pdfmark where {pop} {userdict /pdfmark /cleartomark load put} ifelse
% make '<<' and '>>' safe on PS Level 1 devices
/languagelevel where {pop languagelevel}{1} ifelse
2 lt {
    userdict (<<) cvn ([) cvn load put
    userdict (>>) cvn ([) cvn load put
} if

%%EndSetup
setupLatin1
%%Page: 1 1
%%PageBoundingBox: 36 36 212 332
%%PageOrientation: Portrait
0 0 1 beginpage
gsave
36 36 176 296 boxprim clip newpath
1 1 set_scale 0 rotate 40 40 translate
% R0
gsave
1 setlinewidth
0 0 0 nodecolor
56.5 183.5 21.5 21.5 ellipse_path stroke
1 setlinewidth
0 0 0 nodecolor
56.5 183.5 25.5 25.5 ellipse_path stroke
0 0 0 nodecolor
6 /Times-Roman set_font
53 185.7 moveto 7 (R0) alignedtext
0 0 0 nodecolor
6 /Times-Roman set_font
50 178.7 moveto 13 (0 ms) alignedtext
grestore
% R3
gsave
1 setlinewidth
0 0 0 nodecolor
21.5 100.5 21.5 21.5 ellipse_path stroke
0 0 0 nodecolor
6 /Times-Roman set_font
18 102.7 moveto 7 (R3) alignedtext
0 0 0 nodecolor
6 /Times-Roman set_font
12 95.7 moveto 19 (207 ms) alignedtext
grestore
% R0--R3
gsave
1 setlinewidth
dotted
0 0 0 edgecolor
newpath 46.75 159.94 moveto
41.41 147.58 34.86 132.43 29.78 120.65 curveto
stroke
grestore
% R4
gsave
1 setlinewidth
0 0 0 nodecolor
121.5 100.5 21.5 21.5 ellipse_path stroke
0 0 0 nodecolor
6 /Times-Roman set_font
118 102.7 moveto 7 (R4) alignedtext
0 0 0 nodecolor
6 /Times-Roman set_font
112 95.7 moveto 19 (190 ms) alignedtext
grestore
% R0--R4
gsave
2 setlinewidth
bold
0 0 0 edgecolor
newpath 72.23 162.89 moveto
83.36 149.03 98.08 130.68 108.53 117.66 curveto
stroke
grestore
% R5
gsave
1 setlinewidth
0 0 0 nodecolor
71.5 21.5 21.5 21.5 ellipse_path stroke
0 0 0 nodecolor
6 /Times-Roman set_font
68 23.7 moveto 7 (R5) alignedtext
0 0 0 nodecolor
6 /Times-Roman set_font
63.5 16.7 moveto 16 (52 ms) alignedtext
grestore
% R0--R5
gsave
2 setlinewidth
bold
0 0 0 edgecolor
newpath 58.81 157.85 moveto
61.75 126.47 66.78 72.8 69.55 43.35 curveto
stroke
grestore
% R1
gsave
1 setlinewidth
0 0 0 nodecolor
146.5 266.5 21.5 21.5 ellipse_path stroke
0 0 0 nodecolor
6 /Times-Roman set_font
143 268.7 moveto 7 (R1) alignedtext
0 0 0 nodecolor
6 /Times-Roman set_font
137 261.7 moveto 19 (137 ms) alignedtext
grestore
% R2
gsave
1 setlinewidth
0 0 0 nodecolor
121.5 183.5 21.5 21.5 ellipse_path stroke
0 0 0 nodecolor
6 /Times-Roman set_font
118 185.7 moveto 7 (R2) alignedtext
0 0 0 nodecolor
6 /Times-Roman set_font
112 178.7 moveto 19 (176 ms) alignedtext
grestore
% R1--R2
gsave
2 setlinewidth
bold
0 0 0 edgecolor
newpath 140.32 245.48 moveto
136.45 232.92 131.47 216.8 127.61 204.29 curveto
stroke
grestore
% R1--R5
gsave
2 setlinewidth
bold
0 0 0 edgecolor
newpath 152.89 245.88 moveto
163.25 210.31 179.88 133.79 151.5 79 curveto
138.99 54.84 110.87 38.81 91.53 30.19 curveto
stroke
grestore
% R2--R4
gsave
1 setlinewidth
dotted
0 0 0 edgecolor
newpath 121.5 161.64 moveto
121.5 149.45 121.5 134.13 121.5 122.01 curveto
stroke
grestore
% R3--R5
gsave
2 setlinewidth
bold
0 0 0 edgecolor
newpath 32.85 82.03 moveto
41.03 69.43 52.03 52.49 60.2 39.9 curveto
stroke
grestore
endpage
showpage
grestore
%%PageTrailer
%%EndPage: 1
%%Trailer
%%Pages: 1
%%BoundingBox: 36 36 212 332
end
restore
%%EOF
