%!PS-Adobe-3.0
%%Creator: graphviz version 2.38.0 (20140413.2041)
%%Title: solution
%%Pages: (atend)
%%BoundingBox: (atend)
%%EndComments
save
%%BeginProlog
/DotDict 200 dict def
DotDict begin

/setupLatin1 {
mark
/EncodingVector 256 array def
 EncodingVector 0

ISOLatin1Encoding 0 255 getinterval putinterval
EncodingVector 45 /hyphen put

% Set up ISO Latin 1 character encoding
/starnetISO {
        dup dup findfont dup length dict begin
        { 1 index /FID ne { def }{ pop pop } ifelse
        } forall
        /Encoding EncodingVector def
        currentdict end definefont
} def
/Times-Roman starnetISO def
/Times-Italic starnetISO def
/Times-Bold starnetISO def
/Times-BoldItalic starnetISO def
/Helvetica starnetISO def
/Helvetica-Oblique starnetISO def
/Helvetica-Bold starnetISO def
/Helvetica-BoldOblique starnetISO def
/Courier starnetISO def
/Courier-Oblique starnetISO def
/Courier-Bold starnetISO def
/Courier-BoldOblique starnetISO def
cleartomark
} bind def

%%BeginResource: procset graphviz 0 0
/coord-font-family /Times-Roman def
/default-font-family /Times-Roman def
/coordfont coord-font-family findfont 8 scalefont def

/InvScaleFactor 1.0 def
/set_scale {
       dup 1 exch div /InvScaleFactor exch def
       scale
} bind def

% styles
/solid { [] 0 setdash } bind def
/dashed { [9 InvScaleFactor mul dup ] 0 setdash } bind def
/dotted { [1 InvScaleFactor mul 6 InvScaleFactor mul] 0 setdash } bind def
/invis {/fill {newpath} def /stroke {newpath} def /show {pop newpath} def} bind def
/bold { 2 setlinewidth } bind def
/filled { } bind def
/unfilled { } bind def
/rounded { } bind def
/diagonals { } bind def
/tapered { } bind def

% hooks for setting color 
/nodecolor { sethsbcolor } bind def
/edgecolor { sethsbcolor } bind def
/graphcolor { sethsbcolor } bind def
/nopcolor {pop pop pop} bind def

/beginpage {	% i j npages
	/npages exch def
	/j exch def
	/i exch def
	/str 10 string def
	npages 1 gt {
		gsave
			coordfont setfont
			0 0 moveto
			(\() show i str cvs show (,) show j str cvs show (\)) show
		grestore
	} if
} bind def

/set_font {
	findfont exch
	scalefont setfont
} def

% draw text fitted to its expected width
/alignedtext {			% width text
	/text exch def
	/width exch def
	gsave
		width 0 gt {
			[] 0 setdash
			text stringwidth pop width exch sub text length div 0 text ashow
		} if
	grestore
} def

/boxprim {				% xcorner ycorner xsize ysize
		4 2 roll
		moveto
		2 copy
		exch 0 rlineto
		0 exch rlineto
		pop neg 0 rlineto
		closepath
} bind def

/ellipse_path {
	/ry exch def
	/rx exch def
	/y exch def
	/x exch def
	matrix currentmatrix
	newpath
	x y translate
	rx ry scale
	0 0 1 0 360 arc
	setmatrix
} bind def

/endpage { showpage } bind def
/showpage { } def

/layercolorseq
	[	% layer color sequence - darkest to lightest
		[0 0 0]
		[.2 .8 .8]
		[.4 .8 .8]
		[.6 .8 .8]
		[.8 .8 .8]
	]
def

/layerlen layercolorseq length def

/setlayer {/maxlayer exch def /curlayer exch def
	layercolorseq curlayer 1 sub layerlen mod get
	aload pop sethsbcolor
	/nodecolor {nopcolor} def
	/edgecolor {nopcolor} def
	/graphcolor {nopcolor} def
} bind def

/onlayer { curlayer ne {invis} if } def

/onlayers {
	/myupper exch def
	/mylower exch def
	curlayer mylower lt
	curlayer myupper gt
	or
	{invis} if
} def

/curlayer 0 def

%%EndResource
%%EndProlog
%%BeginSetup
14 default-font-family set_font
1 setmiterlimit
% /arrowlength 10 def
% /arrowwidth 5 def

% make sure pdfmark is harmless for PS-interpreters other than Distiller
/pdfmark where {pop} {userdict /pdfmark /cleartomark load put} ifelse
% make '<<' and '>>' safe on PS Level 1 devices
/languagelevel where {pop languagelevel}{1} ifelse
2 lt {
    userdict (<<) cvn ([) cvn load put
    userdict (>>) cvn ([) cvn load put
} if

%%EndSetup
setupLatin1
%%Page: 1 1
%%PageBoundingBox: 36 36 937 648
%%PageOrientation: Portrait
0 0 1 beginpage
gsave
36 36 901 612 boxprim clip newpath
1 1 set_scale 0 rotate 40 40 translate
% R0
gsave
1 setlinewidth
0 0 0 nodecolor
363 424.5 21.5 21.5 ellipse_path stroke
0 0 0 nodecolor
6 /Times-Roman set_font
359.5 426.7 moveto 7 (R0) alignedtext
0 0 0 nodecolor
6 /Times-Roman set_font
350.5 419.7 moveto 25 (20563 ms) alignedtext
grestore
% R10
gsave
1 setlinewidth
0 0 0 nodecolor
302 345.5 21.5 21.5 ellipse_path stroke
0 0 0 nodecolor
6 /Times-Roman set_font
297 347.7 moveto 10 (R10) alignedtext
0 0 0 nodecolor
6 /Times-Roman set_font
289.5 340.7 moveto 25 (10480 ms) alignedtext
grestore
% R0--R10
gsave
2 setlinewidth
bold
0 0 0 edgecolor
newpath 350.06 407.17 moveto
339.71 394.1 325.26 375.87 314.92 362.81 curveto
stroke
grestore
% R15
gsave
1 setlinewidth
0 0 0 nodecolor
457 266.5 21.5 21.5 ellipse_path stroke
0 0 0 nodecolor
6 /Times-Roman set_font
452 268.7 moveto 10 (R15) alignedtext
0 0 0 nodecolor
6 /Times-Roman set_font
444.5 261.7 moveto 25 (12155 ms) alignedtext
grestore
% R0--R15
gsave
1 setlinewidth
dotted
0 0 0 edgecolor
newpath 373.78 405.6 moveto
391.92 375.51 428.3 315.14 446.34 285.19 curveto
stroke
grestore
% R1
gsave
1 setlinewidth
0 0 0 nodecolor
451 582.5 21.5 21.5 ellipse_path stroke
0 0 0 nodecolor
6 /Times-Roman set_font
447.5 584.7 moveto 7 (R1) alignedtext
0 0 0 nodecolor
6 /Times-Roman set_font
440 577.7 moveto 22 (8506 ms) alignedtext
grestore
% R3
gsave
1 setlinewidth
0 0 0 nodecolor
514 503.5 21.5 21.5 ellipse_path stroke
0 0 0 nodecolor
6 /Times-Roman set_font
510.5 505.7 moveto 7 (R3) alignedtext
0 0 0 nodecolor
6 /Times-Roman set_font
503 498.7 moveto 22 (8743 ms) alignedtext
grestore
% R1--R3
gsave
1 setlinewidth
dotted
0 0 0 edgecolor
newpath 464.36 565.17 moveto
475.12 552.01 490.17 533.62 500.87 520.54 curveto
stroke
grestore
% R4
gsave
1 setlinewidth
0 0 0 nodecolor
615 503.5 21.5 21.5 ellipse_path stroke
0 0 0 nodecolor
6 /Times-Roman set_font
611.5 505.7 moveto 7 (R4) alignedtext
0 0 0 nodecolor
6 /Times-Roman set_font
602.5 498.7 moveto 25 (12458 ms) alignedtext
grestore
% R1--R4
gsave
2 setlinewidth
bold
0 0 0 edgecolor
newpath 470.13 572.52 moveto
501.65 557.72 564.13 528.38 595.73 513.55 curveto
stroke
grestore
% R6
gsave
1 setlinewidth
0 0 0 nodecolor
263 424.5 21.5 21.5 ellipse_path stroke
0 0 0 nodecolor
6 /Times-Roman set_font
259.5 426.7 moveto 7 (R6) alignedtext
0 0 0 nodecolor
6 /Times-Roman set_font
252 419.7 moveto 22 (8853 ms) alignedtext
grestore
% R1--R6
gsave
2 setlinewidth
bold
0 0 0 edgecolor
newpath 434.65 567.93 moveto
399 538.35 314.67 468.38 279.18 438.93 curveto
stroke
grestore
% R7
gsave
1 setlinewidth
0 0 0 nodecolor
363 345.5 21.5 21.5 ellipse_path stroke
0 0 0 nodecolor
6 /Times-Roman set_font
359.5 347.7 moveto 7 (R7) alignedtext
0 0 0 nodecolor
6 /Times-Roman set_font
352 340.7 moveto 22 (6081 ms) alignedtext
grestore
% R1--R7
gsave
1 setlinewidth
dotted
0 0 0 edgecolor
newpath 445.74 561.55 moveto
436.67 528.11 416.73 458.95 393 403 curveto
387.36 389.71 379.71 375.35 373.55 364.43 curveto
stroke
grestore
% R9
gsave
1 setlinewidth
0 0 0 nodecolor
691 187.5 21.5 21.5 ellipse_path stroke
0 0 0 nodecolor
6 /Times-Roman set_font
687.5 189.7 moveto 7 (R9) alignedtext
0 0 0 nodecolor
6 /Times-Roman set_font
680 182.7 moveto 22 (9495 ms) alignedtext
grestore
% R1--R9
gsave
1 setlinewidth
dotted
0 0 0 edgecolor
newpath 472.33 578.87 moveto
521.64 572.36 641.32 553.88 668 525 curveto
740.58 446.42 700.63 394.56 710 288 curveto
711.67 268.96 713.09 263.86 710 245 curveto
707.89 232.13 703.26 218.24 699.09 207.46 curveto
stroke
grestore
% R13
gsave
1 setlinewidth
0 0 0 nodecolor
235 266.5 21.5 21.5 ellipse_path stroke
0 0 0 nodecolor
6 /Times-Roman set_font
230 268.7 moveto 10 (R13) alignedtext
0 0 0 nodecolor
6 /Times-Roman set_font
224 261.7 moveto 22 (5447 ms) alignedtext
grestore
% R1--R13
gsave
1 setlinewidth
dotted
0 0 0 edgecolor
newpath 429.95 577.37 moveto
380.34 566.34 256.66 531.06 209 446 curveto
182.49 398.69 194.63 376.8 207 324 curveto
210.25 310.14 217.41 295.79 223.69 285.02 curveto
stroke
grestore
% R14
gsave
1 setlinewidth
0 0 0 nodecolor
527 187.5 21.5 21.5 ellipse_path stroke
0 0 0 nodecolor
6 /Times-Roman set_font
522 189.7 moveto 10 (R14) alignedtext
0 0 0 nodecolor
6 /Times-Roman set_font
516 182.7 moveto 22 (2926 ms) alignedtext
grestore
% R1--R14
gsave
2 setlinewidth
bold
0 0 0 edgecolor
newpath 472.71 581.91 moveto
512.93 581.43 599.11 574.3 645 525 curveto
669.47 498.71 658.2 481.71 662 446 curveto
671.48 356.85 697.91 317.37 645 245 curveto
621.67 213.1 575.54 198.46 548.39 192.36 curveto
stroke
grestore
% R1--R15
gsave
1 setlinewidth
dotted
0 0 0 edgecolor
newpath 451.39 560.9 moveto
452.48 504 455.52 345.16 456.6 288.18 curveto
stroke
grestore
% R16
gsave
1 setlinewidth
0 0 0 nodecolor
88 104.5 21.5 21.5 ellipse_path stroke
1 setlinewidth
0 0 0 nodecolor
88 104.5 25.5 25.5 ellipse_path stroke
0 0 0 nodecolor
6 /Times-Roman set_font
83 106.7 moveto 10 (R16) alignedtext
0 0 0 nodecolor
6 /Times-Roman set_font
81.5 99.7 moveto 13 (0 ms) alignedtext
grestore
% R1--R16
gsave
1 setlinewidth
dotted
0 0 0 edgecolor
newpath 429.67 578.25 moveto
345.09 564.79 38 510.1 38 425.5 curveto
38 425.5 38 425.5 38 265.5 curveto
38 214.13 61.77 157.54 76.53 127.35 curveto
stroke
grestore
% R17
gsave
1 setlinewidth
0 0 0 nodecolor
716 104.5 21.5 21.5 ellipse_path stroke
0 0 0 nodecolor
6 /Times-Roman set_font
711 106.7 moveto 10 (R17) alignedtext
0 0 0 nodecolor
6 /Times-Roman set_font
703.5 99.7 moveto 25 (12965 ms) alignedtext
grestore
% R1--R17
gsave
1 setlinewidth
dotted
0 0 0 edgecolor
newpath 472.32 578.76 moveto
560.61 566.81 893 515.83 893 425.5 curveto
893 425.5 893 425.5 893 265.5 curveto
893 181.62 782.25 130.33 735.96 112.55 curveto
stroke
grestore
% R19
gsave
1 setlinewidth
0 0 0 nodecolor
345 21.5 21.5 21.5 ellipse_path stroke
0 0 0 nodecolor
6 /Times-Roman set_font
340 23.7 moveto 10 (R19) alignedtext
0 0 0 nodecolor
6 /Times-Roman set_font
332.5 16.7 moveto 25 (20360 ms) alignedtext
grestore
% R1--R19
gsave
2 setlinewidth
bold
0 0 0 edgecolor
newpath 429.6 580.12 moveto
360.75 575.39 146.02 558.24 86 525 curveto
34.87 496.68 0 483.95 0 425.5 curveto
0 425.5 0 425.5 0 186.5 curveto
0 133.23 10.66 111.32 53 79 curveto
95.89 46.26 263.37 29.32 323.42 24.2 curveto
stroke
grestore
% R2
gsave
1 setlinewidth
0 0 0 nodecolor
88 345.5 21.5 21.5 ellipse_path stroke
0 0 0 nodecolor
6 /Times-Roman set_font
84.5 347.7 moveto 7 (R2) alignedtext
0 0 0 nodecolor
6 /Times-Roman set_font
77 340.7 moveto 22 (1723 ms) alignedtext
grestore
% R2--R16
gsave
2 setlinewidth
bold
0 0 0 edgecolor
newpath 88 323.71 moveto
88 279.76 88 177.58 88 130.31 curveto
stroke
grestore
% R18
gsave
1 setlinewidth
0 0 0 nodecolor
296 266.5 21.5 21.5 ellipse_path stroke
0 0 0 nodecolor
6 /Times-Roman set_font
291 268.7 moveto 10 (R18) alignedtext
0 0 0 nodecolor
6 /Times-Roman set_font
285 261.7 moveto 22 (5817 ms) alignedtext
grestore
% R2--R18
gsave
2 setlinewidth
bold
0 0 0 edgecolor
newpath 108.87 339.82 moveto
142.71 331.8 211.18 313.78 265 288 curveto
269.77 285.71 274.67 282.79 279.12 279.87 curveto
stroke
grestore
% R3--R6
gsave
1 setlinewidth
dotted
0 0 0 edgecolor
newpath 492.96 498.86 moveto
453.79 491.68 367.43 473.91 299 446 curveto
292.87 443.5 286.5 440.15 280.85 436.88 curveto
stroke
grestore
% R3--R9
gsave
1 setlinewidth
dotted
0 0 0 edgecolor
newpath 534.29 496.35 moveto
567.35 485.93 630.62 464.15 645 446 curveto
701.7 374.46 697.72 256.52 693.39 209.14 curveto
stroke
grestore
% R12
gsave
1 setlinewidth
0 0 0 nodecolor
577 345.5 21.5 21.5 ellipse_path stroke
0 0 0 nodecolor
6 /Times-Roman set_font
572 347.7 moveto 10 (R12) alignedtext
0 0 0 nodecolor
6 /Times-Roman set_font
566 340.7 moveto 22 (9709 ms) alignedtext
grestore
% R3--R12
gsave
1 setlinewidth
dotted
0 0 0 edgecolor
newpath 523.34 484.13 moveto
528.77 473.18 535.58 458.94 541 446 curveto
552.42 418.72 563.72 386.4 570.53 366.17 curveto
stroke
grestore
% R3--R13
gsave
2 setlinewidth
bold
0 0 0 edgecolor
newpath 492.32 501.57 moveto
432.1 498.48 265.07 486.36 232 446 curveto
194.28 399.97 214.83 322.58 227.46 286.76 curveto
stroke
grestore
% R3--R14
gsave
1 setlinewidth
dotted
0 0 0 edgecolor
newpath 514.85 481.9 moveto
517.21 425 523.78 266.16 526.14 209.18 curveto
stroke
grestore
% R3--R15
gsave
2 setlinewidth
bold
0 0 0 edgecolor
newpath 509.14 482.46 moveto
498.37 438.07 472.6 331.84 461.85 287.49 curveto
stroke
grestore
% R3--R17
gsave
1 setlinewidth
dotted
0 0 0 edgecolor
newpath 534.68 496.75 moveto
572.03 486.09 648.95 462.82 671 446 curveto
713.99 413.21 741 400.57 741 346.5 curveto
741 346.5 741 346.5 741 265.5 curveto
741 214.61 728.5 155.7 721.18 125.55 curveto
stroke
grestore
% R5
gsave
1 setlinewidth
0 0 0 nodecolor
615 424.5 21.5 21.5 ellipse_path stroke
0 0 0 nodecolor
6 /Times-Roman set_font
611.5 426.7 moveto 7 (R5) alignedtext
0 0 0 nodecolor
6 /Times-Roman set_font
602.5 419.7 moveto 25 (15877 ms) alignedtext
grestore
% R4--R5
gsave
2 setlinewidth
bold
0 0 0 edgecolor
newpath 615 481.87 moveto
615 470.82 615 457.25 615 446.19 curveto
stroke
grestore
% R8
gsave
1 setlinewidth
0 0 0 nodecolor
615 266.5 21.5 21.5 ellipse_path stroke
0 0 0 nodecolor
6 /Times-Roman set_font
611.5 268.7 moveto 7 (R8) alignedtext
0 0 0 nodecolor
6 /Times-Roman set_font
604 261.7 moveto 22 (6929 ms) alignedtext
grestore
% R4--R8
gsave
1 setlinewidth
dotted
0 0 0 edgecolor
newpath 627.11 485.09 moveto
633.83 474.36 641.51 460.01 645 446 curveto
659.28 388.67 636.4 319.28 623.25 286.46 curveto
stroke
grestore
% R4--R10
gsave
1 setlinewidth
dotted
0 0 0 edgecolor
newpath 594.65 495.96 moveto
580.54 491.59 561.26 485.94 544 482 curveto
450.83 460.71 403.66 509.24 332 446 curveto
309.54 426.18 303.6 390.23 302.19 367.4 curveto
stroke
grestore
% R4--R17
gsave
2 setlinewidth
bold
0 0 0 edgecolor
newpath 630.88 488.53 moveto
634.09 486.13 637.55 483.83 641 482 curveto
687.96 457.15 723.59 488.86 755 446 curveto
828.56 345.63 790.14 285.38 755 166 curveto
750.06 149.22 738.86 132.7 729.72 121.17 curveto
stroke
grestore
% R5--R12
gsave
1 setlinewidth
dotted
0 0 0 edgecolor
newpath 605.8 404.86 moveto
599.87 392.84 592.19 377.27 586.25 365.23 curveto
stroke
grestore
% R6--R7
gsave
1 setlinewidth
dotted
0 0 0 edgecolor
newpath 279.96 410.44 moveto
298.46 396.19 327.89 373.54 346.29 359.37 curveto
stroke
grestore
% R6--R10
gsave
1 setlinewidth
dotted
0 0 0 edgecolor
newpath 272.44 404.86 moveto
278.57 392.75 286.53 377.04 292.65 364.97 curveto
stroke
grestore
% R11
gsave
1 setlinewidth
0 0 0 nodecolor
357 266.5 21.5 21.5 ellipse_path stroke
0 0 0 nodecolor
6 /Times-Roman set_font
352 268.7 moveto 10 (R11) alignedtext
0 0 0 nodecolor
6 /Times-Roman set_font
344.5 261.7 moveto 25 (10951 ms) alignedtext
grestore
% R6--R11
gsave
1 setlinewidth
dotted
0 0 0 edgecolor
newpath 259.65 402.87 moveto
257.27 381.57 256.67 348.14 271 324 curveto
285.91 298.88 301.59 304.06 326 288 curveto
330.31 285.16 334.96 282.1 339.3 279.22 curveto
stroke
grestore
% R6--R14
gsave
1 setlinewidth
dotted
0 0 0 edgecolor
newpath 249.1 408.04 moveto
220.75 374.6 162.32 294.6 204 245 curveto
242.82 198.8 438.85 190.37 505.1 188.84 curveto
stroke
grestore
% R7--R8
gsave
2 setlinewidth
bold
0 0 0 edgecolor
newpath 383.62 338.2 moveto
430.99 323.72 547.14 288.23 594.45 273.78 curveto
stroke
grestore
% R7--R11
gsave
2 setlinewidth
bold
0 0 0 edgecolor
newpath 361.39 323.87 moveto
360.53 312.82 359.47 299.25 358.61 288.19 curveto
stroke
grestore
% R7--R13
gsave
1 setlinewidth
dotted
0 0 0 edgecolor
newpath 345.47 332.51 moveto
341.12 329.64 336.43 326.65 332 324 curveto
302.98 306.66 293.88 305.56 265 288 curveto
260.8 285.44 256.37 282.54 252.24 279.74 curveto
stroke
grestore
% R7--R14
gsave
1 setlinewidth
dotted
0 0 0 edgecolor
newpath 371.37 325.68 moveto
381.72 304.09 401.06 268.62 426 245 curveto
450.07 222.2 485.07 205.32 506.91 196.2 curveto
stroke
grestore
% R7--R15
gsave
1 setlinewidth
dotted
0 0 0 edgecolor
newpath 379.37 331.09 moveto
396.63 316.95 423.63 294.83 440.81 280.76 curveto
stroke
grestore
% R7--R18
gsave
2 setlinewidth
bold
0 0 0 edgecolor
newpath 349.12 328.55 moveto
337.54 315.24 321.14 296.39 309.64 283.17 curveto
stroke
grestore
% R8--R9
gsave
2 setlinewidth
bold
0 0 0 edgecolor
newpath 629.65 250.65 moveto
643.11 237.02 662.95 216.92 676.39 203.3 curveto
stroke
grestore
% R8--R14
gsave
1 setlinewidth
dotted
0 0 0 edgecolor
newpath 599.27 251.73 moveto
583.35 237.8 558.87 216.39 542.89 202.41 curveto
stroke
grestore
% R9--R17
gsave
1 setlinewidth
dotted
0 0 0 edgecolor
newpath 697.18 166.48 moveto
701.05 153.92 706.03 137.8 709.89 125.29 curveto
stroke
grestore
% R10--R11
gsave
1 setlinewidth
dotted
0 0 0 edgecolor
newpath 314.21 327.41 moveto
323.32 314.65 335.72 297.29 344.83 284.54 curveto
stroke
grestore
% R10--R13
gsave
2 setlinewidth
bold
0 0 0 edgecolor
newpath 288.12 328.55 moveto
276.54 315.24 260.14 296.39 248.64 283.17 curveto
stroke
grestore
% R10--R18
gsave
1 setlinewidth
dotted
0 0 0 edgecolor
newpath 300.39 323.87 moveto
299.53 312.82 298.47 299.25 297.61 288.19 curveto
stroke
grestore
% R12--R14
gsave
2 setlinewidth
bold
0 0 0 edgecolor
newpath 570.67 324.74 moveto
561.05 294.74 542.87 238.01 533.28 208.1 curveto
stroke
grestore
% R12--R15
gsave
1 setlinewidth
dotted
0 0 0 edgecolor
newpath 559.29 333.14 moveto
536.61 318.58 497.5 293.49 474.78 278.91 curveto
stroke
grestore
% R13--R14
gsave
2 setlinewidth
bold
0 0 0 edgecolor
newpath 251.47 252.58 moveto
255.7 249.74 260.36 246.99 265 245 curveto
349.43 208.71 459.53 194.79 505.44 190.32 curveto
stroke
grestore
% R14--R16
gsave
2 setlinewidth
bold
0 0 0 edgecolor
newpath 505.83 182.59 moveto
432.78 169.12 191.5 124.6 112.95 110.1 curveto
stroke
grestore
% R14--R17
gsave
1 setlinewidth
dotted
0 0 0 edgecolor
newpath 546.51 178.14 moveto
582.83 162.57 660.36 129.35 696.59 113.82 curveto
stroke
grestore
% R17--R19
gsave
1 setlinewidth
dotted
0 0 0 edgecolor
newpath 694.99 98.91 moveto
629.69 84.66 430.76 41.22 365.78 27.04 curveto
stroke
grestore
endpage
showpage
grestore
%%PageTrailer
%%EndPage: 1
%%Trailer
%%Pages: 1
%%BoundingBox: 36 36 937 648
end
restore
%%EOF
