graph solution {
        node [shape="circle", fontsize="6", width="0.6", fixedsize="true"];
        R0 [label="R0\n12419 ms"];
        R1 [label="R1\n11445 ms"];
        R2 [label="R2\n7498 ms"];
        R3 [label="R3\n14004 ms"];
        R4 [label="R4\n12287 ms"];
        R5 [label="R5\n14043 ms"];
        R6 [label="R6\n12788 ms"];
        R7 [label="R7\n9552 ms"];
        R8 [label="R8\n14481 ms"];
        R9 [label="R9\n7782 ms"];
        R10 [label="R10\n10279 ms"];
        R11 [label="R11\n17163 ms"];
        R12 [label="R12\n8815 ms"];
        R13 [label="R13\n14783 ms"];
        R14 [label="R14\n9570 ms"];
        R15 [label="R15\n11713 ms"];
        R16 [label="R16\n13891 ms"];
        R17 [label="R17\n11414 ms"];
        R18 [label="R18\n14174 ms"];
        R19 [label="R19\n11036 ms"];
        R20 [label="R20\n2623 ms"];
        R21 [label="R21\n15483 ms"];
        R22 [label="R22\n11191 ms"];
        R23 [label="R23\n10986 ms"];
        R24 [label="R24\n18086 ms"];
        R25 [label="R25\n10805 ms"];
        R26 [label="R26\n1262 ms"];
        R27 [label="R27\n18340 ms"];
        R28 [label="R28\n8615 ms"];
        R29 [label="R29\n16258 ms"];
        R30 [label="R30\n10289 ms"];
        R31 [label="R31\n10429 ms"];
        R32 [label="R32\n14787 ms"];
        R33 [label="R33\n15672 ms"];
        R34 [label="R34\n9119 ms"];
        R35 [label="R35\n9776 ms"];
        R36 [label="R36\n28935 ms"];
        R37 [label="R37\n15656 ms"];
        R38 [label="R38\n16424 ms"];
        R39 [label="R39\n17986 ms"];
        R40 [label="R40\n18005 ms"];
        R41 [label="R41\n10945 ms"];
        R42 [label="R42\n15308 ms"];
        R43 [label="R43\n14759 ms"];
        R44 [label="R44\n11897 ms"];
        R45 [label="R45\n17284 ms"];
        R46 [label="R46\n11219 ms"];
        R47 [label="R47\n19639 ms"];
        R48 [label="R48\n18650 ms"];
        R49 [label="R49\n12520 ms"];
        R50 [label="R50\n14015 ms"];
        R51 [label="R51\n12097 ms"];
        R52 [label="R52\n17408 ms"];
        R53 [label="R53\n5832 ms"];
        R54 [label="R54\n19071 ms"];
        R55 [label="R55\n8814 ms"];
        R56 [label="R56\n14969 ms"];
        R57 [label="R57\n7278 ms"];
        R58 [label="R58\n14941 ms"];
        R59 [label="R59\n0 ms", shape="doublecircle"];
        R60 [label="R60\n6639 ms"];
        R61 [label="R61\n5419 ms"];
        R62 [label="R62\n7788 ms"];
        R63 [label="R63\n7620 ms"];
        R64 [label="R64\n5768 ms"];
        R65 [label="R65\n11608 ms"];
        R66 [label="R66\n9750 ms"];
        R67 [label="R67\n10339 ms"];
        R68 [label="R68\n15789 ms"];
        R69 [label="R69\n10170 ms"];
        R70 [label="R70\n17342 ms"];
        R71 [label="R71\n7483 ms"];
        R72 [label="R72\n9332 ms"];
        R73 [label="R73\n10042 ms"];
        R74 [label="R74\n8786 ms"];
        R75 [label="R75\n11187 ms"];
        R76 [label="R76\n18299 ms"];
        R77 [label="R77\n5073 ms"];
        R78 [label="R78\n11231 ms"];
        R79 [label="R79\n6995 ms"];
        R80 [label="R80\n15999 ms"];
        R81 [label="R81\n9806 ms"];
        R82 [label="R82\n9398 ms"];
        R83 [label="R83\n9593 ms"];
        R84 [label="R84\n6109 ms"];
        R85 [label="R85\n13111 ms"];
        R86 [label="R86\n13302 ms"];
        R87 [label="R87\n8828 ms"];
        R88 [label="R88\n19033 ms"];
        R89 [label="R89\n16497 ms"];
        R90 [label="R90\n7748 ms"];
        R91 [label="R91\n3755 ms"];
        R92 [label="R92\n12086 ms"];
        R93 [label="R93\n12582 ms"];
        R94 [label="R94\n12155 ms"];
        R95 [label="R95\n14122 ms"];
        R96 [label="R96\n7275 ms"];
        R97 [label="R97\n10455 ms"];
        R98 [label="R98\n11731 ms"];
        R99 [label="R99\n17172 ms"];
        R0--R31 [style="dotted"];
        R0--R33 [style="dotted"];
        R0--R49 [style="dotted"];
        R0--R63 [style="dotted"];
        R0--R65 [style="bold"];
        R0--R86 [style="bold"];
        R1--R14 [style="dotted"];
        R1--R22 [style="dotted"];
        R1--R26 [style="bold"];
        R1--R35 [style="dotted"];
        R1--R37 [style="dotted"];
        R1--R42 [style="dotted"];
        R1--R71 [style="dotted"];
        R2--R7 [style="bold"];
        R2--R10 [style="bold"];
        R2--R32 [style="dotted"];
        R2--R44 [style="dotted"];
        R2--R73 [style="bold"];
        R2--R96 [style="bold"];
        R3--R5 [style="bold"];
        R3--R15 [style="bold"];
        R3--R69 [style="dotted"];
        R3--R85 [style="dotted"];
        R4--R8 [style="bold"];
        R4--R14 [style="dotted"];
        R4--R22 [style="dotted"];
        R4--R23 [style="dotted"];
        R4--R29 [style="dotted"];
        R4--R46 [style="dotted"];
        R4--R78 [style="bold"];
        R4--R81 [style="dotted"];
        R5--R22 [style="dotted"];
        R5--R33 [style="bold"];
        R5--R37 [style="dotted"];
        R5--R40 [style="dotted"];
        R5--R45 [style="bold"];
        R5--R81 [style="dotted"];
        R5--R97 [style="dotted"];
        R6--R17 [style="dotted"];
        R6--R18 [style="dotted"];
        R6--R24 [style="dotted"];
        R6--R51 [style="bold"];
        R6--R57 [style="dotted"];
        R7--R27 [style="bold"];
        R7--R43 [style="dotted"];
        R7--R46 [style="bold"];
        R7--R50 [style="dotted"];
        R7--R63 [style="dotted"];
        R7--R72 [style="dotted"];
        R7--R73 [style="dotted"];
        R7--R74 [style="dotted"];
        R8--R13 [style="dotted"];
        R8--R36 [style="bold"];
        R8--R56 [style="dotted"];
        R8--R63 [style="dotted"];
        R8--R91 [style="dotted"];
        R9--R29 [style="dotted"];
        R9--R55 [style="dotted"];
        R9--R59 [style="dotted"];
        R9--R77 [style="dotted"];
        R9--R79 [style="dotted"];
        R9--R96 [style="bold"];
        R10--R41 [style="dotted"];
        R10--R66 [style="dotted"];
        R10--R90 [style="dotted"];
        R11--R41 [style="dotted"];
        R11--R52 [style="dotted"];
        R11--R63 [style="dotted"];
        R11--R68 [style="dotted"];
        R11--R82 [style="dotted"];
        R11--R86 [style="bold"];
        R12--R14 [style="bold"];
        R12--R18 [style="bold"];
        R12--R25 [style="dotted"];
        R12--R31 [style="dotted"];
        R12--R41 [style="dotted"];
        R12--R46 [style="dotted"];
        R12--R64 [style="bold"];
        R12--R82 [style="dotted"];
        R12--R93 [style="dotted"];
        R13--R23 [style="dotted"];
        R13--R73 [style="bold"];
        R13--R99 [style="dotted"];
        R14--R28 [style="dotted"];
        R14--R74 [style="dotted"];
        R15--R27 [style="dotted"];
        R15--R30 [style="dotted"];
        R15--R33 [style="dotted"];
        R15--R34 [style="dotted"];
        R15--R53 [style="bold"];
        R15--R63 [style="dotted"];
        R15--R92 [style="dotted"];
        R15--R97 [style="dotted"];
        R16--R30 [style="dotted"];
        R16--R34 [style="dotted"];
        R16--R40 [style="dotted"];
        R16--R58 [style="dotted"];
        R16--R63 [style="dotted"];
        R16--R94 [style="bold"];
        R16--R99 [style="bold"];
        R17--R21 [style="dotted"];
        R17--R51 [style="dotted"];
        R17--R62 [style="bold"];
        R17--R75 [style="dotted"];
        R17--R80 [style="bold"];
        R18--R35 [style="dotted"];
        R18--R46 [style="dotted"];
        R18--R76 [style="dotted"];
        R18--R86 [style="dotted"];
        R19--R76 [style="dotted"];
        R19--R81 [style="bold"];
        R19--R98 [style="bold"];
        R20--R22 [style="dotted"];
        R20--R26 [style="bold"];
        R20--R57 [style="bold"];
        R20--R60 [style="bold"];
        R20--R62 [style="bold"];
        R20--R64 [style="bold"];
        R20--R77 [style="bold"];
        R20--R81 [style="bold"];
        R20--R91 [style="bold"];
        R21--R39 [style="dotted"];
        R21--R42 [style="dotted"];
        R21--R58 [style="dotted"];
        R21--R71 [style="bold"];
        R21--R80 [style="dotted"];
        R22--R25 [style="dotted"];
        R22--R62 [style="dotted"];
        R22--R71 [style="dotted"];
        R22--R79 [style="bold"];
        R22--R95 [style="bold"];
        R23--R26 [style="bold"];
        R23--R78 [style="dotted"];
        R23--R88 [style="dotted"];
        R24--R29 [style="dotted"];
        R24--R48 [style="dotted"];
        R24--R68 [style="bold"];
        R24--R85 [style="dotted"];
        R25--R30 [style="dotted"];
        R25--R31 [style="dotted"];
        R25--R64 [style="bold"];
        R25--R93 [style="dotted"];
        R26--R59 [style="bold"];
        R26--R66 [style="bold"];
        R26--R83 [style="bold"];
        R26--R96 [style="bold"];
        R27--R94 [style="dotted"];
        R28--R54 [style="bold"];
        R28--R75 [style="bold"];
        R28--R77 [style="bold"];
        R28--R78 [style="dotted"];
        R28--R92 [style="dotted"];
        R29--R33 [style="dotted"];
        R29--R57 [style="bold"];
        R29--R69 [style="dotted"];
        R29--R74 [style="dotted"];
        R29--R92 [style="dotted"];
        R30--R52 [style="bold"];
        R30--R58 [style="dotted"];
        R30--R78 [style="bold"];
        R30--R81 [style="bold"];
        R31--R55 [style="bold"];
        R31--R93 [style="bold"];
        R32--R49 [style="bold"];
        R32--R76 [style="dotted"];
        R32--R85 [style="dotted"];
        R32--R86 [style="dotted"];
        R33--R42 [style="dotted"];
        R33--R49 [style="dotted"];
        R33--R78 [style="dotted"];
        R34--R63 [style="bold"];
        R34--R73 [style="dotted"];
        R34--R84 [style="dotted"];
        R35--R47 [style="dotted"];
        R35--R66 [style="dotted"];
        R35--R68 [style="dotted"];
        R35--R74 [style="dotted"];
        R35--R90 [style="bold"];
        R36--R39 [style="dotted"];
        R37--R47 [style="bold"];
        R37--R64 [style="bold"];
        R38--R70 [style="dotted"];
        R38--R73 [style="bold"];
        R38--R82 [style="dotted"];
        R39--R55 [style="bold"];
        R39--R78 [style="dotted"];
        R39--R88 [style="dotted"];
        R39--R92 [style="dotted"];
        R39--R95 [style="dotted"];
        R40--R42 [style="dotted"];
        R40--R55 [style="dotted"];
        R40--R62 [style="bold"];
        R40--R93 [style="dotted"];
        R41--R94 [style="bold"];
        R41--R96 [style="bold"];
        R42--R63 [style="bold"];
        R42--R75 [style="dotted"];
        R43--R48 [style="dotted"];
        R43--R57 [style="bold"];
        R43--R69 [style="dotted"];
        R43--R72 [style="dotted"];
        R44--R56 [style="bold"];
        R44--R64 [style="bold"];
        R44--R95 [style="dotted"];
        R45--R73 [style="dotted"];
        R45--R88 [style="dotted"];
        R45--R90 [style="dotted"];
        R45--R98 [style="dotted"];
        R46--R72 [style="dotted"];
        R46--R89 [style="bold"];
        R47--R48 [style="dotted"];
        R47--R68 [style="dotted"];
        R47--R76 [style="dotted"];
        R47--R81 [style="dotted"];
        R48--R58 [style="dotted"];
        R48--R93 [style="bold"];
        R49--R51 [style="bold"];
        R49--R58 [style="bold"];
        R49--R98 [style="dotted"];
        R50--R60 [style="bold"];
        R51--R57 [style="bold"];
        R51--R86 [style="dotted"];
        R52--R58 [style="dotted"];
        R53--R69 [style="dotted"];
        R53--R72 [style="dotted"];
        R53--R77 [style="bold"];
        R53--R85 [style="dotted"];
        R53--R90 [style="bold"];
        R55--R63 [style="dotted"];
        R55--R77 [style="dotted"];
        R55--R93 [style="dotted"];
        R55--R96 [style="bold"];
        R57--R74 [style="dotted"];
        R57--R82 [style="dotted"];
        R57--R87 [style="bold"];
        R58--R66 [style="dotted"];
        R58--R67 [style="dotted"];
        R58--R74 [style="dotted"];
        R59--R61 [style="bold"];
        R59--R71 [style="bold"];
        R59--R85 [style="bold"];
        R59--R97 [style="bold"];
        R60--R71 [style="dotted"];
        R60--R88 [style="dotted"];
        R61--R79 [style="bold"];
        R61--R93 [style="dotted"];
        R61--R97 [style="dotted"];
        R62--R65 [style="dotted"];
        R62--R68 [style="dotted"];
        R63--R74 [style="dotted"];
        R63--R84 [style="bold"];
        R63--R97 [style="dotted"];
        R64--R67 [style="bold"];
        R64--R70 [style="bold"];
        R64--R81 [style="dotted"];
        R64--R84 [style="bold"];
        R64--R92 [style="dotted"];
        R65--R85 [style="dotted"];
        R65--R90 [style="bold"];
        R66--R76 [style="dotted"];
        R67--R88 [style="bold"];
        R68--R70 [style="dotted"];
        R68--R84 [style="bold"];
        R69--R73 [style="bold"];
        R69--R79 [style="dotted"];
        R69--R90 [style="dotted"];
        R72--R94 [style="dotted"];
        R72--R96 [style="bold"];
        R72--R97 [style="dotted"];
        R73--R76 [style="bold"];
        R73--R96 [style="dotted"];
        R74--R77 [style="bold"];
        R74--R90 [style="dotted"];
        R74--R96 [style="dotted"];
        R75--R78 [style="dotted"];
        R76--R80 [style="dotted"];
        R77--R82 [style="bold"];
        R77--R97 [style="dotted"];
        R77--R99 [style="dotted"];
        R78--R89 [style="dotted"];
        R83--R91 [style="dotted"];
        R85--R91 [style="dotted"];
        R85--R93 [style="dotted"];
        R86--R96 [style="dotted"];
        R90--R92 [style="bold"];
        R94--R96 [style="dotted"];
}

