%!PS-Adobe-3.0
%%Creator: graphviz version 2.38.0 (20140413.2041)
%%Title: solution
%%Pages: (atend)
%%BoundingBox: (atend)
%%EndComments
save
%%BeginProlog
/DotDict 200 dict def
DotDict begin

/setupLatin1 {
mark
/EncodingVector 256 array def
 EncodingVector 0

ISOLatin1Encoding 0 255 getinterval putinterval
EncodingVector 45 /hyphen put

% Set up ISO Latin 1 character encoding
/starnetISO {
        dup dup findfont dup length dict begin
        { 1 index /FID ne { def }{ pop pop } ifelse
        } forall
        /Encoding EncodingVector def
        currentdict end definefont
} def
/Times-Roman starnetISO def
/Times-Italic starnetISO def
/Times-Bold starnetISO def
/Times-BoldItalic starnetISO def
/Helvetica starnetISO def
/Helvetica-Oblique starnetISO def
/Helvetica-Bold starnetISO def
/Helvetica-BoldOblique starnetISO def
/Courier starnetISO def
/Courier-Oblique starnetISO def
/Courier-Bold starnetISO def
/Courier-BoldOblique starnetISO def
cleartomark
} bind def

%%BeginResource: procset graphviz 0 0
/coord-font-family /Times-Roman def
/default-font-family /Times-Roman def
/coordfont coord-font-family findfont 8 scalefont def

/InvScaleFactor 1.0 def
/set_scale {
       dup 1 exch div /InvScaleFactor exch def
       scale
} bind def

% styles
/solid { [] 0 setdash } bind def
/dashed { [9 InvScaleFactor mul dup ] 0 setdash } bind def
/dotted { [1 InvScaleFactor mul 6 InvScaleFactor mul] 0 setdash } bind def
/invis {/fill {newpath} def /stroke {newpath} def /show {pop newpath} def} bind def
/bold { 2 setlinewidth } bind def
/filled { } bind def
/unfilled { } bind def
/rounded { } bind def
/diagonals { } bind def
/tapered { } bind def

% hooks for setting color 
/nodecolor { sethsbcolor } bind def
/edgecolor { sethsbcolor } bind def
/graphcolor { sethsbcolor } bind def
/nopcolor {pop pop pop} bind def

/beginpage {	% i j npages
	/npages exch def
	/j exch def
	/i exch def
	/str 10 string def
	npages 1 gt {
		gsave
			coordfont setfont
			0 0 moveto
			(\() show i str cvs show (,) show j str cvs show (\)) show
		grestore
	} if
} bind def

/set_font {
	findfont exch
	scalefont setfont
} def

% draw text fitted to its expected width
/alignedtext {			% width text
	/text exch def
	/width exch def
	gsave
		width 0 gt {
			[] 0 setdash
			text stringwidth pop width exch sub text length div 0 text ashow
		} if
	grestore
} def

/boxprim {				% xcorner ycorner xsize ysize
		4 2 roll
		moveto
		2 copy
		exch 0 rlineto
		0 exch rlineto
		pop neg 0 rlineto
		closepath
} bind def

/ellipse_path {
	/ry exch def
	/rx exch def
	/y exch def
	/x exch def
	matrix currentmatrix
	newpath
	x y translate
	rx ry scale
	0 0 1 0 360 arc
	setmatrix
} bind def

/endpage { showpage } bind def
/showpage { } def

/layercolorseq
	[	% layer color sequence - darkest to lightest
		[0 0 0]
		[.2 .8 .8]
		[.4 .8 .8]
		[.6 .8 .8]
		[.8 .8 .8]
	]
def

/layerlen layercolorseq length def

/setlayer {/maxlayer exch def /curlayer exch def
	layercolorseq curlayer 1 sub layerlen mod get
	aload pop sethsbcolor
	/nodecolor {nopcolor} def
	/edgecolor {nopcolor} def
	/graphcolor {nopcolor} def
} bind def

/onlayer { curlayer ne {invis} if } def

/onlayers {
	/myupper exch def
	/mylower exch def
	curlayer mylower lt
	curlayer myupper gt
	or
	{invis} if
} def

/curlayer 0 def

%%EndResource
%%EndProlog
%%BeginSetup
14 default-font-family set_font
1 setmiterlimit
% /arrowlength 10 def
% /arrowwidth 5 def

% make sure pdfmark is harmless for PS-interpreters other than Distiller
/pdfmark where {pop} {userdict /pdfmark /cleartomark load put} ifelse
% make '<<' and '>>' safe on PS Level 1 devices
/languagelevel where {pop languagelevel}{1} ifelse
2 lt {
    userdict (<<) cvn ([) cvn load put
    userdict (>>) cvn ([) cvn load put
} if

%%EndSetup
setupLatin1
%%Page: 1 1
%%PageBoundingBox: 36 36 4548 806
%%PageOrientation: Portrait
0 0 1 beginpage
gsave
36 36 4512 770 boxprim clip newpath
1 1 set_scale 0 rotate 40 40 translate
% R0
gsave
1 setlinewidth
0 0 0 nodecolor
2167 582.5 21.5 21.5 ellipse_path stroke
0 0 0 nodecolor
6 /Times-Roman set_font
2163.5 584.7 moveto 7 (R0) alignedtext
0 0 0 nodecolor
6 /Times-Roman set_font
2154.5 577.7 moveto 25 (12419 ms) alignedtext
grestore
% R31
gsave
1 setlinewidth
0 0 0 nodecolor
3262 424.5 21.5 21.5 ellipse_path stroke
0 0 0 nodecolor
6 /Times-Roman set_font
3257 426.7 moveto 10 (R31) alignedtext
0 0 0 nodecolor
6 /Times-Roman set_font
3249.5 419.7 moveto 25 (10429 ms) alignedtext
grestore
% R0--R31
gsave
1 setlinewidth
dotted
0 0 0 edgecolor
newpath 2188.54 580.06 moveto
2240.42 576.6 2376.41 567.63 2490 561 curveto
2565.09 556.62 3097.58 556.24 3166 525 curveto
3204.43 507.46 3235.39 467.01 3250.99 443.44 curveto
stroke
grestore
% R33
gsave
1 setlinewidth
0 0 0 nodecolor
1968 503.5 21.5 21.5 ellipse_path stroke
0 0 0 nodecolor
6 /Times-Roman set_font
1963 505.7 moveto 10 (R33) alignedtext
0 0 0 nodecolor
6 /Times-Roman set_font
1955.5 498.7 moveto 25 (15672 ms) alignedtext
grestore
% R0--R33
gsave
1 setlinewidth
dotted
0 0 0 edgecolor
newpath 2150.09 569.18 moveto
2145.64 566.26 2140.75 563.32 2136 561 curveto
2109.25 547.93 2026.96 522.34 1988.37 510.62 curveto
stroke
grestore
% R49
gsave
1 setlinewidth
0 0 0 nodecolor
1307 424.5 21.5 21.5 ellipse_path stroke
0 0 0 nodecolor
6 /Times-Roman set_font
1302 426.7 moveto 10 (R49) alignedtext
0 0 0 nodecolor
6 /Times-Roman set_font
1294.5 419.7 moveto 25 (12520 ms) alignedtext
grestore
% R0--R49
gsave
1 setlinewidth
dotted
0 0 0 edgecolor
newpath 2150.46 568.28 moveto
2146 565.38 2141.02 562.67 2136 561 curveto
1877.92 475.03 1789.97 586.57 1525 525 curveto
1436.72 504.49 1416.6 489.34 1337 446 curveto
1332.68 443.65 1328.21 440.82 1324.07 438.04 curveto
stroke
grestore
% R63
gsave
1 setlinewidth
0 0 0 nodecolor
2502 258.5 21.5 21.5 ellipse_path stroke
0 0 0 nodecolor
6 /Times-Roman set_font
2497 260.7 moveto 10 (R63) alignedtext
0 0 0 nodecolor
6 /Times-Roman set_font
2491 253.7 moveto 22 (7620 ms) alignedtext
grestore
% R0--R63
gsave
1 setlinewidth
dotted
0 0 0 edgecolor
newpath 2188.07 578.18 moveto
2258.05 565.86 2482.48 515.49 2557 367 curveto
2567.17 346.74 2565.53 337 2557 316 curveto
2549.42 297.36 2532.41 281.5 2519.3 271.37 curveto
stroke
grestore
% R65
gsave
1 setlinewidth
0 0 0 nodecolor
2921 341.5 21.5 21.5 ellipse_path stroke
0 0 0 nodecolor
6 /Times-Roman set_font
2916 343.7 moveto 10 (R65) alignedtext
0 0 0 nodecolor
6 /Times-Roman set_font
2908.5 336.7 moveto 25 (11608 ms) alignedtext
grestore
% R0--R65
gsave
2 setlinewidth
bold
0 0 0 edgecolor
newpath 2188.4 578.13 moveto
2296.84 560.94 2782.87 482.34 2840 446 curveto
2873.5 424.69 2898.88 384.53 2911.7 361 curveto
stroke
grestore
% R86
gsave
1 setlinewidth
0 0 0 nodecolor
1125 258.5 21.5 21.5 ellipse_path stroke
0 0 0 nodecolor
6 /Times-Roman set_font
1120 260.7 moveto 10 (R86) alignedtext
0 0 0 nodecolor
6 /Times-Roman set_font
1112.5 253.7 moveto 25 (13302 ms) alignedtext
grestore
% R0--R86
gsave
2 setlinewidth
bold
0 0 0 edgecolor
newpath 2150.47 568.25 moveto
2146.02 565.34 2141.03 562.65 2136 561 curveto
1980.81 510.15 1562.71 554.03 1402 525 curveto
1288.16 504.44 1229.26 533.85 1154 446 curveto
1132.9 421.36 1127.09 323.27 1125.54 280.09 curveto
stroke
grestore
% R1
gsave
1 setlinewidth
0 0 0 nodecolor
2925 661.5 21.5 21.5 ellipse_path stroke
0 0 0 nodecolor
6 /Times-Roman set_font
2921.5 663.7 moveto 7 (R1) alignedtext
0 0 0 nodecolor
6 /Times-Roman set_font
2912.5 656.7 moveto 25 (11445 ms) alignedtext
grestore
% R14
gsave
1 setlinewidth
0 0 0 nodecolor
2875 582.5 21.5 21.5 ellipse_path stroke
0 0 0 nodecolor
6 /Times-Roman set_font
2870 584.7 moveto 10 (R14) alignedtext
0 0 0 nodecolor
6 /Times-Roman set_font
2864 577.7 moveto 22 (9570 ms) alignedtext
grestore
% R1--R14
gsave
1 setlinewidth
dotted
0 0 0 edgecolor
newpath 2913.65 643.03 moveto
2905.47 630.43 2894.47 613.49 2886.3 600.9 curveto
stroke
grestore
% R22
gsave
1 setlinewidth
0 0 0 nodecolor
3447 582.5 21.5 21.5 ellipse_path stroke
0 0 0 nodecolor
6 /Times-Roman set_font
3442 584.7 moveto 10 (R22) alignedtext
0 0 0 nodecolor
6 /Times-Roman set_font
3434.5 577.7 moveto 25 (11191 ms) alignedtext
grestore
% R1--R22
gsave
1 setlinewidth
dotted
0 0 0 edgecolor
newpath 2946.42 659.15 moveto
3028.44 653.82 3322.41 633.03 3411 604 curveto
3417.29 601.94 3423.71 598.71 3429.35 595.42 curveto
stroke
grestore
% R26
gsave
1 setlinewidth
0 0 0 nodecolor
3889 424.5 21.5 21.5 ellipse_path stroke
0 0 0 nodecolor
6 /Times-Roman set_font
3884 426.7 moveto 10 (R26) alignedtext
0 0 0 nodecolor
6 /Times-Roman set_font
3878 419.7 moveto 22 (1262 ms) alignedtext
grestore
% R1--R26
gsave
2 setlinewidth
bold
0 0 0 edgecolor
newpath 2946.73 660.64 moveto
3021.7 660.64 3275.9 656.51 3477 604 curveto
3636.52 562.35 3813.67 467.68 3870.44 436.03 curveto
stroke
grestore
% R35
gsave
1 setlinewidth
0 0 0 nodecolor
1706 503.5 21.5 21.5 ellipse_path stroke
0 0 0 nodecolor
6 /Times-Roman set_font
1701 505.7 moveto 10 (R35) alignedtext
0 0 0 nodecolor
6 /Times-Roman set_font
1695 498.7 moveto 22 (9776 ms) alignedtext
grestore
% R1--R35
gsave
1 setlinewidth
dotted
0 0 0 edgecolor
newpath 2903.69 657.36 moveto
2872.3 652.85 2811.76 644.57 2760 640 curveto
2608.16 626.59 2221.46 646.26 2075 604 curveto
2037.34 593.13 2034.82 574.45 1998 561 curveto
1900.76 525.48 1776.72 510.94 1727.51 506.31 curveto
stroke
grestore
% R37
gsave
1 setlinewidth
0 0 0 nodecolor
2761 503.5 21.5 21.5 ellipse_path stroke
0 0 0 nodecolor
6 /Times-Roman set_font
2756 505.7 moveto 10 (R37) alignedtext
0 0 0 nodecolor
6 /Times-Roman set_font
2748.5 498.7 moveto 25 (15656 ms) alignedtext
grestore
% R1--R37
gsave
1 setlinewidth
dotted
0 0 0 edgecolor
newpath 2926.51 639.98 moveto
2926.99 617.82 2924.25 582.79 2905 561 curveto
2871.5 523.09 2843.21 545.62 2797 525 curveto
2790.96 522.3 2784.61 518.9 2778.95 515.64 curveto
stroke
grestore
% R42
gsave
1 setlinewidth
0 0 0 nodecolor
2120 424.5 21.5 21.5 ellipse_path stroke
0 0 0 nodecolor
6 /Times-Roman set_font
2115 426.7 moveto 10 (R42) alignedtext
0 0 0 nodecolor
6 /Times-Roman set_font
2107.5 419.7 moveto 25 (15308 ms) alignedtext
grestore
% R1--R42
gsave
1 setlinewidth
dotted
0 0 0 edgecolor
newpath 2903.69 657.81 moveto
2817.68 646.96 2500.15 606.79 2490 604 curveto
2404.58 580.51 2387.27 562.48 2307 525 curveto
2236.22 491.95 2217.29 485.68 2150 446 curveto
2145.76 443.5 2141.32 440.62 2137.19 437.83 curveto
stroke
grestore
% R71
gsave
1 setlinewidth
0 0 0 nodecolor
3988 258.5 21.5 21.5 ellipse_path stroke
0 0 0 nodecolor
6 /Times-Roman set_font
3983 260.7 moveto 10 (R71) alignedtext
0 0 0 nodecolor
6 /Times-Roman set_font
3977 253.7 moveto 22 (7483 ms) alignedtext
grestore
% R1--R71
gsave
1 setlinewidth
dotted
0 0 0 edgecolor
newpath 2946.54 659.36 moveto
3026.95 654.96 3317.07 637.55 3554 604 curveto
3599.61 597.54 3922.96 550.98 3961 525 curveto
4040.32 470.83 4037.9 409.52 4016 316 curveto
4012.75 302.14 4005.59 287.79 3999.31 277.02 curveto
stroke
grestore
% R2
gsave
1 setlinewidth
0 0 0 nodecolor
1015 582.5 21.5 21.5 ellipse_path stroke
0 0 0 nodecolor
6 /Times-Roman set_font
1011.5 584.7 moveto 7 (R2) alignedtext
0 0 0 nodecolor
6 /Times-Roman set_font
1004 577.7 moveto 22 (7498 ms) alignedtext
grestore
% R7
gsave
1 setlinewidth
0 0 0 nodecolor
1556 503.5 21.5 21.5 ellipse_path stroke
0 0 0 nodecolor
6 /Times-Roman set_font
1552.5 505.7 moveto 7 (R7) alignedtext
0 0 0 nodecolor
6 /Times-Roman set_font
1545 498.7 moveto 22 (9552 ms) alignedtext
grestore
% R2--R7
gsave
2 setlinewidth
bold
0 0 0 edgecolor
newpath 1036.21 578.48 moveto
1122.65 566.18 1447.93 519.88 1534.65 507.54 curveto
stroke
grestore
% R10
gsave
1 setlinewidth
0 0 0 nodecolor
749 424.5 21.5 21.5 ellipse_path stroke
0 0 0 nodecolor
6 /Times-Roman set_font
744 426.7 moveto 10 (R10) alignedtext
0 0 0 nodecolor
6 /Times-Roman set_font
736.5 419.7 moveto 25 (10279 ms) alignedtext
grestore
% R2--R10
gsave
2 setlinewidth
bold
0 0 0 edgecolor
newpath 996.35 571.44 moveto
956.08 549.58 858.24 495.72 779 446 curveto
774.83 443.38 770.42 440.46 766.3 437.66 curveto
stroke
grestore
% R32
gsave
1 setlinewidth
0 0 0 nodecolor
1097 503.5 21.5 21.5 ellipse_path stroke
0 0 0 nodecolor
6 /Times-Roman set_font
1092 505.7 moveto 10 (R32) alignedtext
0 0 0 nodecolor
6 /Times-Roman set_font
1084.5 498.7 moveto 25 (14787 ms) alignedtext
grestore
% R2--R32
gsave
1 setlinewidth
dotted
0 0 0 edgecolor
newpath 1030.42 567.02 moveto
1045.08 553.25 1067.01 532.66 1081.65 518.92 curveto
stroke
grestore
% R44
gsave
1 setlinewidth
0 0 0 nodecolor
2937 503.5 21.5 21.5 ellipse_path stroke
0 0 0 nodecolor
6 /Times-Roman set_font
2932 505.7 moveto 10 (R44) alignedtext
0 0 0 nodecolor
6 /Times-Roman set_font
2924.5 498.7 moveto 25 (11897 ms) alignedtext
grestore
% R2--R44
gsave
1 setlinewidth
dotted
0 0 0 edgecolor
newpath 1036.49 580.96 moveto
1225.91 576.15 2607.83 540.73 2791 525 curveto
2835.63 521.17 2887.47 513 2915.8 508.21 curveto
stroke
grestore
% R73
gsave
1 setlinewidth
0 0 0 nodecolor
582 258.5 21.5 21.5 ellipse_path stroke
0 0 0 nodecolor
6 /Times-Roman set_font
577 260.7 moveto 10 (R73) alignedtext
0 0 0 nodecolor
6 /Times-Roman set_font
569.5 253.7 moveto 25 (10042 ms) alignedtext
grestore
% R2--R73
gsave
2 setlinewidth
bold
0 0 0 edgecolor
newpath 993.47 581.63 moveto
894.22 581.93 480.67 579.8 366 525 curveto
278.08 482.99 250.42 457.38 214 367 curveto
205.53 345.98 199.24 333.2 214 316 curveto
259.3 263.21 488.59 259.25 560.44 259.33 curveto
stroke
grestore
% R96
gsave
1 setlinewidth
0 0 0 nodecolor
1387 100.5 21.5 21.5 ellipse_path stroke
0 0 0 nodecolor
6 /Times-Roman set_font
1382 102.7 moveto 10 (R96) alignedtext
0 0 0 nodecolor
6 /Times-Roman set_font
1376 95.7 moveto 22 (7275 ms) alignedtext
grestore
% R2--R96
gsave
2 setlinewidth
bold
0 0 0 edgecolor
newpath 1002.14 564.73 moveto
955.78 502.16 805.68 279.65 917 158 curveto
947.5 124.67 1277.7 130.85 1322 122 curveto
1337.43 118.92 1354.37 113.51 1367.09 109.02 curveto
stroke
grestore
% R3
gsave
1 setlinewidth
0 0 0 nodecolor
2383 740.5 21.5 21.5 ellipse_path stroke
0 0 0 nodecolor
6 /Times-Roman set_font
2379.5 742.7 moveto 7 (R3) alignedtext
0 0 0 nodecolor
6 /Times-Roman set_font
2370.5 735.7 moveto 25 (14004 ms) alignedtext
grestore
% R5
gsave
1 setlinewidth
0 0 0 nodecolor
2730 661.5 21.5 21.5 ellipse_path stroke
0 0 0 nodecolor
6 /Times-Roman set_font
2726.5 663.7 moveto 7 (R5) alignedtext
0 0 0 nodecolor
6 /Times-Roman set_font
2717.5 656.7 moveto 25 (14043 ms) alignedtext
grestore
% R3--R5
gsave
2 setlinewidth
bold
0 0 0 edgecolor
newpath 2403.92 734.86 moveto
2465.76 721.14 2647.18 680.88 2709.05 667.15 curveto
stroke
grestore
% R15
gsave
1 setlinewidth
0 0 0 nodecolor
2106 582.5 21.5 21.5 ellipse_path stroke
0 0 0 nodecolor
6 /Times-Roman set_font
2101 584.7 moveto 10 (R15) alignedtext
0 0 0 nodecolor
6 /Times-Roman set_font
2093.5 577.7 moveto 25 (11713 ms) alignedtext
grestore
% R3--R15
gsave
2 setlinewidth
bold
0 0 0 edgecolor
newpath 2362.87 732.51 moveto
2336.11 722.89 2287.7 704.32 2249 683 curveto
2200.52 656.3 2148.28 616.93 2122.43 596.64 curveto
stroke
grestore
% R69
gsave
1 setlinewidth
0 0 0 nodecolor
1047 341.5 21.5 21.5 ellipse_path stroke
0 0 0 nodecolor
6 /Times-Roman set_font
1042 343.7 moveto 10 (R69) alignedtext
0 0 0 nodecolor
6 /Times-Roman set_font
1034.5 336.7 moveto 25 (10170 ms) alignedtext
grestore
% R3--R69
gsave
1 setlinewidth
dotted
0 0 0 edgecolor
newpath 2361.52 738.98 moveto
2141.98 733.55 311.93 685.93 235 604 curveto
181.13 546.62 246.86 507.46 718 403 curveto
848.24 374.12 892.84 418.28 1016 367 curveto
1021.7 364.63 1027.22 360.89 1031.99 357.05 curveto
stroke
grestore
% R85
gsave
1 setlinewidth
0 0 0 nodecolor
3624 258.5 21.5 21.5 ellipse_path stroke
0 0 0 nodecolor
6 /Times-Roman set_font
3619 260.7 moveto 10 (R85) alignedtext
0 0 0 nodecolor
6 /Times-Roman set_font
3611.5 253.7 moveto 25 (13111 ms) alignedtext
grestore
% R3--R85
gsave
1 setlinewidth
dotted
0 0 0 edgecolor
newpath 2404.67 737.72 moveto
2453.22 733.78 2574.41 724.28 2676 719 curveto
2911.37 706.77 3506.03 734.6 3736 683 curveto
3822.44 663.6 3870.33 678.02 3919 604 curveto
3968.08 529.36 3970.13 476.25 3919 403 curveto
3892.44 364.95 3863.53 385.55 3821 367 curveto
3742.84 332.91 3721.83 325.95 3650 280 curveto
3646.71 277.89 3643.33 275.46 3640.14 273.02 curveto
stroke
grestore
% R4
gsave
1 setlinewidth
0 0 0 nodecolor
2707 740.5 21.5 21.5 ellipse_path stroke
0 0 0 nodecolor
6 /Times-Roman set_font
2703.5 742.7 moveto 7 (R4) alignedtext
0 0 0 nodecolor
6 /Times-Roman set_font
2694.5 735.7 moveto 25 (12287 ms) alignedtext
grestore
% R8
gsave
1 setlinewidth
0 0 0 nodecolor
3706 661.5 21.5 21.5 ellipse_path stroke
0 0 0 nodecolor
6 /Times-Roman set_font
3702.5 663.7 moveto 7 (R8) alignedtext
0 0 0 nodecolor
6 /Times-Roman set_font
3693.5 656.7 moveto 25 (14481 ms) alignedtext
grestore
% R4--R8
gsave
2 setlinewidth
bold
0 0 0 edgecolor
newpath 2728.6 738.7 moveto
2825.87 734.99 3232.83 718.03 3565 683 curveto
3607.56 678.51 3656.99 670.73 3684.57 666.15 curveto
stroke
grestore
% R4--R14
gsave
1 setlinewidth
dotted
0 0 0 edgecolor
newpath 2722.5 725.1 moveto
2754.51 695.38 2827.56 627.55 2859.53 597.86 curveto
stroke
grestore
% R4--R22
gsave
1 setlinewidth
dotted
0 0 0 edgecolor
newpath 2728.41 737.94 moveto
2815.79 731.05 3152.98 699.33 3411 604 curveto
3417.21 601.71 3423.6 598.41 3429.25 595.14 curveto
stroke
grestore
% R23
gsave
1 setlinewidth
0 0 0 nodecolor
3889 503.5 21.5 21.5 ellipse_path stroke
0 0 0 nodecolor
6 /Times-Roman set_font
3884 505.7 moveto 10 (R23) alignedtext
0 0 0 nodecolor
6 /Times-Roman set_font
3876.5 498.7 moveto 25 (10986 ms) alignedtext
grestore
% R4--R23
gsave
1 setlinewidth
dotted
0 0 0 edgecolor
newpath 2728.77 739.34 moveto
2858.88 738.25 3534.85 730.35 3736 683 curveto
3822.23 662.7 3870.33 678.02 3919 604 curveto
3936.15 577.92 3916.42 541.65 3901.82 520.87 curveto
stroke
grestore
% R29
gsave
1 setlinewidth
0 0 0 nodecolor
1968 582.5 21.5 21.5 ellipse_path stroke
0 0 0 nodecolor
6 /Times-Roman set_font
1963 584.7 moveto 10 (R29) alignedtext
0 0 0 nodecolor
6 /Times-Roman set_font
1955.5 577.7 moveto 25 (16258 ms) alignedtext
grestore
% R4--R29
gsave
1 setlinewidth
dotted
0 0 0 edgecolor
newpath 2685.29 738.28 moveto
2619.14 734.27 2414.46 719.54 2249 683 curveto
2137.28 658.33 2108.71 650.11 2004 604 curveto
1997.94 601.33 1991.59 597.94 1985.94 594.68 curveto
stroke
grestore
% R46
gsave
1 setlinewidth
0 0 0 nodecolor
1246 424.5 21.5 21.5 ellipse_path stroke
0 0 0 nodecolor
6 /Times-Roman set_font
1241 426.7 moveto 10 (R46) alignedtext
0 0 0 nodecolor
6 /Times-Roman set_font
1233.5 419.7 moveto 25 (11219 ms) alignedtext
grestore
% R4--R46
gsave
1 setlinewidth
dotted
0 0 0 edgecolor
newpath 2685.61 737.95 moveto
2637.12 734.44 2515.11 725.7 2413 719 curveto
2004.45 692.19 1884.17 742.82 1499 604 curveto
1424.02 576.98 1401.91 572.62 1338 525 curveto
1305.36 500.68 1274.82 463.79 1258.45 442.43 curveto
stroke
grestore
% R78
gsave
1 setlinewidth
0 0 0 nodecolor
2028 258.5 21.5 21.5 ellipse_path stroke
0 0 0 nodecolor
6 /Times-Roman set_font
2023 260.7 moveto 10 (R78) alignedtext
0 0 0 nodecolor
6 /Times-Roman set_font
2015.5 253.7 moveto 25 (11231 ms) alignedtext
grestore
% R4--R78
gsave
2 setlinewidth
bold
0 0 0 edgecolor
newpath 2685.57 737.87 moveto
2583.21 730.06 2146.55 696.23 2087 683 curveto
1972.27 657.52 1842 701.03 1842 583.5 curveto
1842 583.5 1842 583.5 1842 502.5 curveto
1842 392.53 1963.61 301.52 2010.17 270.71 curveto
stroke
grestore
% R81
gsave
1 setlinewidth
0 0 0 nodecolor
2631 341.5 21.5 21.5 ellipse_path stroke
0 0 0 nodecolor
6 /Times-Roman set_font
2626 343.7 moveto 10 (R81) alignedtext
0 0 0 nodecolor
6 /Times-Roman set_font
2620 336.7 moveto 22 (9806 ms) alignedtext
grestore
% R4--R81
gsave
1 setlinewidth
dotted
0 0 0 edgecolor
newpath 2689.81 727.06 moveto
2658.88 703.06 2597 647.13 2597 583.5 curveto
2597 583.5 2597 583.5 2597 502.5 curveto
2597 450.82 2614.18 391.75 2624.12 361.92 curveto
stroke
grestore
% R5--R22
gsave
1 setlinewidth
dotted
0 0 0 edgecolor
newpath 2751.19 657.47 moveto
2782.4 653.1 2842.59 645 2894 640 curveto
3123.25 617.71 3190.52 670.66 3411 604 curveto
3417.47 602.04 3424.04 598.76 3429.77 595.39 curveto
stroke
grestore
% R5--R33
gsave
2 setlinewidth
bold
0 0 0 edgecolor
newpath 2708.26 659.47 moveto
2601.36 654.27 2134.08 630.21 2075 604 curveto
2033.73 585.69 1998.12 544.74 1980.25 521.48 curveto
stroke
grestore
% R5--R37
gsave
1 setlinewidth
dotted
0 0 0 edgecolor
newpath 2734.05 640.11 moveto
2739.99 610.21 2751 554.8 2756.95 524.9 curveto
stroke
grestore
% R40
gsave
1 setlinewidth
0 0 0 nodecolor
3075 503.5 21.5 21.5 ellipse_path stroke
0 0 0 nodecolor
6 /Times-Roman set_font
3070 505.7 moveto 10 (R40) alignedtext
0 0 0 nodecolor
6 /Times-Roman set_font
3062.5 498.7 moveto 25 (18005 ms) alignedtext
grestore
% R5--R40
gsave
1 setlinewidth
dotted
0 0 0 edgecolor
newpath 2743.24 644.46 moveto
2762.79 621.95 2801.66 581.46 2844 561 curveto
2923.35 522.66 2956.22 555.23 3039 525 curveto
3045.22 522.73 3051.61 519.44 3057.26 516.17 curveto
stroke
grestore
% R45
gsave
1 setlinewidth
0 0 0 nodecolor
810 424.5 21.5 21.5 ellipse_path stroke
0 0 0 nodecolor
6 /Times-Roman set_font
805 426.7 moveto 10 (R45) alignedtext
0 0 0 nodecolor
6 /Times-Roman set_font
797.5 419.7 moveto 25 (17284 ms) alignedtext
grestore
% R5--R45
gsave
2 setlinewidth
bold
0 0 0 edgecolor
newpath 2708.57 659.02 moveto
2652.91 655.23 2499.19 645.13 2371 640 curveto
2327.52 638.26 835.41 635.12 805 604 curveto
763.07 561.1 787.38 481.07 801.75 444.55 curveto
stroke
grestore
% R5--R81
gsave
1 setlinewidth
dotted
0 0 0 edgecolor
newpath 2723.81 640.61 moveto
2706.03 583.5 2654.97 419.48 2637.19 362.38 curveto
stroke
grestore
% R97
gsave
1 setlinewidth
0 0 0 nodecolor
3712 21.5 21.5 21.5 ellipse_path stroke
0 0 0 nodecolor
6 /Times-Roman set_font
3707 23.7 moveto 10 (R97) alignedtext
0 0 0 nodecolor
6 /Times-Roman set_font
3699.5 16.7 moveto 25 (10455 ms) alignedtext
grestore
% R5--R97
gsave
1 setlinewidth
dotted
0 0 0 edgecolor
newpath 2751.19 657.53 moveto
2782.41 653.23 2842.62 645.22 2894 640 curveto
2996.01 629.64 3257.41 638.41 3354 604 curveto
3385.59 592.75 3385.19 574.24 3416 561 curveto
3488.16 530 3523.29 568.02 3589 525 curveto
3747.28 421.38 3715.28 310.87 3726 122 curveto
3727.08 102.92 3728.32 97.97 3726 79 curveto
3724.48 66.56 3721.15 52.92 3718.12 42.15 curveto
stroke
grestore
% R6
gsave
1 setlinewidth
0 0 0 nodecolor
266 740.5 21.5 21.5 ellipse_path stroke
0 0 0 nodecolor
6 /Times-Roman set_font
262.5 742.7 moveto 7 (R6) alignedtext
0 0 0 nodecolor
6 /Times-Roman set_font
253.5 735.7 moveto 25 (12788 ms) alignedtext
grestore
% R17
gsave
1 setlinewidth
0 0 0 nodecolor
1899 582.5 21.5 21.5 ellipse_path stroke
0 0 0 nodecolor
6 /Times-Roman set_font
1894 584.7 moveto 10 (R17) alignedtext
0 0 0 nodecolor
6 /Times-Roman set_font
1886.5 577.7 moveto 25 (11414 ms) alignedtext
grestore
% R6--R17
gsave
1 setlinewidth
dotted
0 0 0 edgecolor
newpath 287.55 737.44 moveto
466.13 720.38 1699.04 602.6 1877.49 585.56 curveto
stroke
grestore
% R18
gsave
1 setlinewidth
0 0 0 nodecolor
266 582.5 21.5 21.5 ellipse_path stroke
0 0 0 nodecolor
6 /Times-Roman set_font
261 584.7 moveto 10 (R18) alignedtext
0 0 0 nodecolor
6 /Times-Roman set_font
253.5 577.7 moveto 25 (14174 ms) alignedtext
grestore
% R6--R18
gsave
1 setlinewidth
dotted
0 0 0 edgecolor
newpath 266 718.78 moveto
266 688.95 266 634.19 266 604.3 curveto
stroke
grestore
% R24
gsave
1 setlinewidth
0 0 0 nodecolor
2341 661.5 21.5 21.5 ellipse_path stroke
0 0 0 nodecolor
6 /Times-Roman set_font
2336 663.7 moveto 10 (R24) alignedtext
0 0 0 nodecolor
6 /Times-Roman set_font
2328.5 656.7 moveto 25 (18086 ms) alignedtext
grestore
% R6--R24
gsave
1 setlinewidth
dotted
0 0 0 edgecolor
newpath 287.53 739.62 moveto
493.18 740.7 2107.21 747.06 2310 683 curveto
2315.05 681.41 2320.04 678.73 2324.5 675.83 curveto
stroke
grestore
% R51
gsave
1 setlinewidth
0 0 0 nodecolor
986 341.5 21.5 21.5 ellipse_path stroke
0 0 0 nodecolor
6 /Times-Roman set_font
981 343.7 moveto 10 (R51) alignedtext
0 0 0 nodecolor
6 /Times-Roman set_font
973.5 336.7 moveto 25 (12097 ms) alignedtext
grestore
% R6--R51
gsave
2 setlinewidth
bold
0 0 0 edgecolor
newpath 245.12 734.69 moveto
220.72 727.84 181.47 712.65 164 683 curveto
118.57 605.9 118.76 550.79 176 482 curveto
244.59 399.56 299.31 426.25 404 403 curveto
459.72 390.62 866.19 353.35 964.59 344.43 curveto
stroke
grestore
% R57
gsave
1 setlinewidth
0 0 0 nodecolor
948 258.5 21.5 21.5 ellipse_path stroke
0 0 0 nodecolor
6 /Times-Roman set_font
943 260.7 moveto 10 (R57) alignedtext
0 0 0 nodecolor
6 /Times-Roman set_font
937 253.7 moveto 22 (7278 ms) alignedtext
grestore
% R6--R57
gsave
1 setlinewidth
dotted
0 0 0 edgecolor
newpath 244.68 737.26 moveto
181.56 729.34 0 696.73 0 583.5 curveto
0 583.5 0 583.5 0 502.5 curveto
0 346.67 538.83 412.04 688 367 curveto
700.36 363.27 869.76 292.33 928.28 267.78 curveto
stroke
grestore
% R27
gsave
1 setlinewidth
0 0 0 nodecolor
1606 424.5 21.5 21.5 ellipse_path stroke
0 0 0 nodecolor
6 /Times-Roman set_font
1601 426.7 moveto 10 (R27) alignedtext
0 0 0 nodecolor
6 /Times-Roman set_font
1593.5 419.7 moveto 25 (18340 ms) alignedtext
grestore
% R7--R27
gsave
2 setlinewidth
bold
0 0 0 edgecolor
newpath 1567.35 485.03 moveto
1575.53 472.43 1586.53 455.49 1594.7 442.9 curveto
stroke
grestore
% R43
gsave
1 setlinewidth
0 0 0 nodecolor
1368 424.5 21.5 21.5 ellipse_path stroke
0 0 0 nodecolor
6 /Times-Roman set_font
1363 426.7 moveto 10 (R43) alignedtext
0 0 0 nodecolor
6 /Times-Roman set_font
1355.5 419.7 moveto 25 (14759 ms) alignedtext
grestore
% R7--R43
gsave
1 setlinewidth
dotted
0 0 0 edgecolor
newpath 1538.08 491.28 moveto
1532.43 488.02 1526.07 484.63 1520 482 curveto
1470.48 460.52 1453.52 467.48 1404 446 curveto
1397.93 443.37 1391.57 439.98 1385.92 436.72 curveto
stroke
grestore
% R7--R46
gsave
2 setlinewidth
bold
0 0 0 edgecolor
newpath 1534.42 501.08 moveto
1486.28 497.29 1367.15 484.46 1276 446 curveto
1271.35 444.04 1266.68 441.3 1262.45 438.46 curveto
stroke
grestore
% R50
gsave
1 setlinewidth
0 0 0 nodecolor
3423 424.5 21.5 21.5 ellipse_path stroke
0 0 0 nodecolor
6 /Times-Roman set_font
3418 426.7 moveto 10 (R50) alignedtext
0 0 0 nodecolor
6 /Times-Roman set_font
3410.5 419.7 moveto 25 (14015 ms) alignedtext
grestore
% R7--R50
gsave
1 setlinewidth
dotted
0 0 0 edgecolor
newpath 1576.94 497.91 moveto
1600.61 492.96 1640.36 485.33 1675 482 curveto
1864.39 463.8 3203.6 496.63 3387 446 curveto
3393.52 444.2 3400.1 440.96 3405.83 437.58 curveto
stroke
grestore
% R7--R63
gsave
1 setlinewidth
dotted
0 0 0 edgecolor
newpath 1576.99 498.51 moveto
1621.83 489.89 1730.19 468.45 1820 446 curveto
1887.28 429.18 1902.46 418.75 1970 403 curveto
2057.53 382.59 2091.74 412.93 2169 367 curveto
2194 352.14 2185.09 331.01 2210 316 curveto
2299.33 262.16 2429.49 258.11 2480.43 258.79 curveto
stroke
grestore
% R72
gsave
1 setlinewidth
0 0 0 nodecolor
1361 341.5 21.5 21.5 ellipse_path stroke
0 0 0 nodecolor
6 /Times-Roman set_font
1356 343.7 moveto 10 (R72) alignedtext
0 0 0 nodecolor
6 /Times-Roman set_font
1350 336.7 moveto 22 (9332 ms) alignedtext
grestore
% R7--R72
gsave
1 setlinewidth
dotted
0 0 0 edgecolor
newpath 1548.87 482.85 moveto
1539.99 460.82 1522.89 425.25 1498 403 curveto
1495.64 400.89 1417.79 367.06 1380.51 350.93 curveto
stroke
grestore
% R7--R73
gsave
1 setlinewidth
dotted
0 0 0 edgecolor
newpath 1534.36 501.41 moveto
1411.08 495.18 799.98 463.58 718 446 curveto
619.28 424.83 562.66 449.88 505 367 curveto
492.06 348.39 494.76 336.22 505 316 curveto
516.91 292.48 543.73 276.38 562.34 267.56 curveto
stroke
grestore
% R74
gsave
1 setlinewidth
0 0 0 nodecolor
1701 179.5 21.5 21.5 ellipse_path stroke
0 0 0 nodecolor
6 /Times-Roman set_font
1696 181.7 moveto 10 (R74) alignedtext
0 0 0 nodecolor
6 /Times-Roman set_font
1690 174.7 moveto 22 (8786 ms) alignedtext
grestore
% R7--R74
gsave
1 setlinewidth
dotted
0 0 0 edgecolor
newpath 1557.96 481.78 moveto
1560.37 461.27 1565.36 429.25 1575 403 curveto
1605.15 320.91 1663.51 233.4 1688.81 197.43 curveto
stroke
grestore
% R13
gsave
1 setlinewidth
0 0 0 nodecolor
3889 582.5 21.5 21.5 ellipse_path stroke
0 0 0 nodecolor
6 /Times-Roman set_font
3884 584.7 moveto 10 (R13) alignedtext
0 0 0 nodecolor
6 /Times-Roman set_font
3876.5 577.7 moveto 25 (14783 ms) alignedtext
grestore
% R8--R13
gsave
1 setlinewidth
dotted
0 0 0 edgecolor
newpath 3726.37 653.76 moveto
3755.13 644.01 3809.02 624.83 3853 604 curveto
3858.98 601.17 3865.31 597.72 3870.97 594.47 curveto
stroke
grestore
% R36
gsave
1 setlinewidth
0 0 0 nodecolor
3523 503.5 21.5 21.5 ellipse_path stroke
0 0 0 nodecolor
6 /Times-Roman set_font
3518 505.7 moveto 10 (R36) alignedtext
0 0 0 nodecolor
6 /Times-Roman set_font
3510.5 498.7 moveto 25 (28935 ms) alignedtext
grestore
% R8--R36
gsave
2 setlinewidth
bold
0 0 0 edgecolor
newpath 3690.08 646.93 moveto
3655.47 617.43 3573.71 547.73 3539.01 518.15 curveto
stroke
grestore
% R56
gsave
1 setlinewidth
0 0 0 nodecolor
3561 424.5 21.5 21.5 ellipse_path stroke
0 0 0 nodecolor
6 /Times-Roman set_font
3556 426.7 moveto 10 (R56) alignedtext
0 0 0 nodecolor
6 /Times-Roman set_font
3548.5 419.7 moveto 25 (14969 ms) alignedtext
grestore
% R8--R56
gsave
1 setlinewidth
dotted
0 0 0 edgecolor
newpath 3695.1 642.84 moveto
3668.23 599.29 3599.03 487.13 3572.03 443.37 curveto
stroke
grestore
% R8--R63
gsave
1 setlinewidth
dotted
0 0 0 edgecolor
newpath 3703.9 639.92 moveto
3697.52 589.42 3673.45 459.38 3591 403 curveto
3526.46 358.87 3317.2 384.51 3241 367 curveto
3176.46 352.17 3165.6 330.56 3101 316 curveto
2879.37 266.04 2601.96 260.19 2523.53 259.56 curveto
stroke
grestore
% R91
gsave
1 setlinewidth
0 0 0 nodecolor
4264 179.5 21.5 21.5 ellipse_path stroke
0 0 0 nodecolor
6 /Times-Roman set_font
4259 181.7 moveto 10 (R91) alignedtext
0 0 0 nodecolor
6 /Times-Roman set_font
4253 174.7 moveto 22 (3755 ms) alignedtext
grestore
% R8--R91
gsave
1 setlinewidth
dotted
0 0 0 edgecolor
newpath 3727.78 661.03 moveto
3795.97 662.04 4010.66 660.23 4176 604 curveto
4241.09 581.86 4258.27 571.4 4309 525 curveto
4403.65 438.42 4393.54 347.27 4328 237 curveto
4316.64 217.89 4296.62 201.78 4281.99 191.71 curveto
stroke
grestore
% R9
gsave
1 setlinewidth
0 0 0 nodecolor
4219 661.5 21.5 21.5 ellipse_path stroke
0 0 0 nodecolor
6 /Times-Roman set_font
4215.5 663.7 moveto 7 (R9) alignedtext
0 0 0 nodecolor
6 /Times-Roman set_font
4208 656.7 moveto 22 (7782 ms) alignedtext
grestore
% R9--R29
gsave
1 setlinewidth
dotted
0 0 0 edgecolor
newpath 4197.34 659.42 moveto
4129.38 656.07 3914.26 645.71 3736 640 curveto
3366.99 628.17 2442.15 642.87 2075 604 curveto
2044.72 600.79 2010.2 593.51 1988.76 588.55 curveto
stroke
grestore
% R55
gsave
1 setlinewidth
0 0 0 nodecolor
3272 341.5 21.5 21.5 ellipse_path stroke
0 0 0 nodecolor
6 /Times-Roman set_font
3267 343.7 moveto 10 (R55) alignedtext
0 0 0 nodecolor
6 /Times-Roman set_font
3261 336.7 moveto 22 (8814 ms) alignedtext
grestore
% R9--R55
gsave
1 setlinewidth
dotted
0 0 0 edgecolor
newpath 4198.45 654.38 moveto
4142.36 637.34 3982.53 586.55 3858 525 curveto
3812.18 502.35 3710.91 420.83 3663 403 curveto
3627.96 389.96 3369.64 355.33 3293.23 345.27 curveto
stroke
grestore
% R59
gsave
1 setlinewidth
0 0 0 nodecolor
4108 341.5 21.5 21.5 ellipse_path stroke
1 setlinewidth
0 0 0 nodecolor
4108 341.5 25.5 25.5 ellipse_path stroke
0 0 0 nodecolor
6 /Times-Roman set_font
4103 343.7 moveto 10 (R59) alignedtext
0 0 0 nodecolor
6 /Times-Roman set_font
4101.5 336.7 moveto 13 (0 ms) alignedtext
grestore
% R9--R59
gsave
1 setlinewidth
dotted
0 0 0 edgecolor
newpath 4212.22 641.09 moveto
4192.83 585.53 4137.16 426.04 4116.16 365.86 curveto
stroke
grestore
% R77
gsave
1 setlinewidth
0 0 0 nodecolor
3636 100.5 21.5 21.5 ellipse_path stroke
0 0 0 nodecolor
6 /Times-Roman set_font
3631 102.7 moveto 10 (R77) alignedtext
0 0 0 nodecolor
6 /Times-Roman set_font
3625 95.7 moveto 22 (5073 ms) alignedtext
grestore
% R9--R77
gsave
1 setlinewidth
dotted
0 0 0 edgecolor
newpath 4235.56 647.78 moveto
4272.97 617.72 4362.66 537.91 4387 446 curveto
4420.45 319.7 4439.8 225.62 4328 158 curveto
4269.34 122.52 3768.44 105.48 3657.64 102.13 curveto
stroke
grestore
% R79
gsave
1 setlinewidth
0 0 0 nodecolor
4107 179.5 21.5 21.5 ellipse_path stroke
0 0 0 nodecolor
6 /Times-Roman set_font
4102 181.7 moveto 10 (R79) alignedtext
0 0 0 nodecolor
6 /Times-Roman set_font
4096 174.7 moveto 22 (6995 ms) alignedtext
grestore
% R9--R79
gsave
1 setlinewidth
dotted
0 0 0 edgecolor
newpath 4231.91 643.74 moveto
4239.34 633.02 4247.99 618.45 4252 604 curveto
4295.59 446.81 4348.67 371.24 4256 237 curveto
4227 194.99 4162.41 184.19 4128.59 181.43 curveto
stroke
grestore
% R9--R96
gsave
2 setlinewidth
bold
0 0 0 edgecolor
newpath 4223.08 640.15 moveto
4228.66 610.47 4238 553.47 4238 504.5 curveto
4238 504.5 4238 504.5 4238 423.5 curveto
4238 359.44 4194.09 353.28 4142 316 curveto
4108.64 292.12 4090.45 303.75 4057 280 curveto
4035.96 265.06 4040.75 249.18 4018 237 curveto
3913.6 181.12 3608.96 168.39 3491 158 curveto
3056.7 119.76 1603.96 103.72 1408.76 101.72 curveto
stroke
grestore
% R41
gsave
1 setlinewidth
0 0 0 nodecolor
1461 341.5 21.5 21.5 ellipse_path stroke
0 0 0 nodecolor
6 /Times-Roman set_font
1456 343.7 moveto 10 (R41) alignedtext
0 0 0 nodecolor
6 /Times-Roman set_font
1448.5 336.7 moveto 25 (10945 ms) alignedtext
grestore
% R10--R41
gsave
1 setlinewidth
dotted
0 0 0 edgecolor
newpath 765.27 410.07 moveto
769.5 407.24 774.22 404.63 779 403 curveto
907.92 358.97 1257.42 393.76 1391 367 curveto
1408.55 363.48 1427.68 356.56 1441.5 350.97 curveto
stroke
grestore
% R66
gsave
1 setlinewidth
0 0 0 nodecolor
532 179.5 21.5 21.5 ellipse_path stroke
0 0 0 nodecolor
6 /Times-Roman set_font
527 181.7 moveto 10 (R66) alignedtext
0 0 0 nodecolor
6 /Times-Roman set_font
521 174.7 moveto 22 (9750 ms) alignedtext
grestore
% R10--R66
gsave
1 setlinewidth
dotted
0 0 0 edgecolor
newpath 727.51 421.85 moveto
673.2 417.21 532.8 401.97 505 367 curveto
465.2 316.93 501.93 234.57 521.52 198.44 curveto
stroke
grestore
% R90
gsave
1 setlinewidth
0 0 0 nodecolor
1292 100.5 21.5 21.5 ellipse_path stroke
0 0 0 nodecolor
6 /Times-Roman set_font
1287 102.7 moveto 10 (R90) alignedtext
0 0 0 nodecolor
6 /Times-Roman set_font
1281 95.7 moveto 22 (7748 ms) alignedtext
grestore
% R10--R90
gsave
1 setlinewidth
dotted
0 0 0 edgecolor
newpath 749.7 402.71 moveto
752.64 351.61 767.91 219.58 847 158 curveto
914.13 105.73 1190.84 101.53 1270.47 101.42 curveto
stroke
grestore
% R11
gsave
1 setlinewidth
0 0 0 nodecolor
1790 424.5 21.5 21.5 ellipse_path stroke
0 0 0 nodecolor
6 /Times-Roman set_font
1785 426.7 moveto 10 (R11) alignedtext
0 0 0 nodecolor
6 /Times-Roman set_font
1777.5 419.7 moveto 25 (17163 ms) alignedtext
grestore
% R11--R41
gsave
1 setlinewidth
dotted
0 0 0 edgecolor
newpath 1768.81 419.93 moveto
1705.78 409.22 1522.29 377.52 1497 367 curveto
1490.16 364.16 1483.28 359.9 1477.39 355.73 curveto
stroke
grestore
% R52
gsave
1 setlinewidth
0 0 0 nodecolor
1827 341.5 21.5 21.5 ellipse_path stroke
0 0 0 nodecolor
6 /Times-Roman set_font
1822 343.7 moveto 10 (R52) alignedtext
0 0 0 nodecolor
6 /Times-Roman set_font
1814.5 336.7 moveto 25 (17408 ms) alignedtext
grestore
% R11--R52
gsave
1 setlinewidth
dotted
0 0 0 edgecolor
newpath 1798.58 404.71 moveto
1804.52 391.72 1812.38 374.5 1818.34 361.47 curveto
stroke
grestore
% R11--R63
gsave
1 setlinewidth
dotted
0 0 0 edgecolor
newpath 1811.46 420.38 moveto
1884.37 409.71 2118.79 374.97 2133 367 curveto
2159.11 352.36 2150.95 330.76 2177 316 curveto
2229.57 286.21 2416.26 267.15 2480.28 261.36 curveto
stroke
grestore
% R68
gsave
1 setlinewidth
0 0 0 nodecolor
2241 341.5 21.5 21.5 ellipse_path stroke
0 0 0 nodecolor
6 /Times-Roman set_font
2236 343.7 moveto 10 (R68) alignedtext
0 0 0 nodecolor
6 /Times-Roman set_font
2228.5 336.7 moveto 25 (15789 ms) alignedtext
grestore
% R11--R68
gsave
1 setlinewidth
dotted
0 0 0 edgecolor
newpath 1811.5 421.58 moveto
1869.5 416.11 2033.74 398.8 2167 367 curveto
2185.69 362.54 2206.42 355.49 2221.17 350.09 curveto
stroke
grestore
% R82
gsave
1 setlinewidth
0 0 0 nodecolor
708 21.5 21.5 21.5 ellipse_path stroke
0 0 0 nodecolor
6 /Times-Roman set_font
703 23.7 moveto 10 (R82) alignedtext
0 0 0 nodecolor
6 /Times-Roman set_font
697 16.7 moveto 22 (9398 ms) alignedtext
grestore
% R11--R82
gsave
1 setlinewidth
dotted
0 0 0 edgecolor
newpath 1768.9 420.03 moveto
1739.29 415.32 1683.71 407.02 1636 403 curveto
1580.11 398.29 665.95 407.36 627 367 curveto
580.92 319.25 670.27 106.82 699.31 41.61 curveto
stroke
grestore
% R11--R86
gsave
2 setlinewidth
bold
0 0 0 edgecolor
newpath 1768.66 420.15 moveto
1728.95 413.44 1641.5 396.41 1573 367 curveto
1533.56 350.07 1531.25 330.91 1491 316 curveto
1366.5 269.88 1204.71 261.4 1146.8 259.85 curveto
stroke
grestore
% R12
gsave
1 setlinewidth
0 0 0 nodecolor
2280 661.5 21.5 21.5 ellipse_path stroke
0 0 0 nodecolor
6 /Times-Roman set_font
2275 663.7 moveto 10 (R12) alignedtext
0 0 0 nodecolor
6 /Times-Roman set_font
2269 656.7 moveto 22 (8815 ms) alignedtext
grestore
% R12--R14
gsave
2 setlinewidth
bold
0 0 0 edgecolor
newpath 2296.28 647.1 moveto
2300.51 644.27 2305.23 641.65 2310 640 curveto
2532.66 562.81 2613.37 672.02 2839 604 curveto
2845.47 602.05 2852.05 598.77 2857.77 595.39 curveto
stroke
grestore
% R12--R18
gsave
2 setlinewidth
bold
0 0 0 edgecolor
newpath 2258.25 660.52 moveto
2055.52 660.6 499.87 659.42 302 604 curveto
295.49 602.18 288.91 598.93 283.18 595.55 curveto
stroke
grestore
% R25
gsave
1 setlinewidth
0 0 0 nodecolor
3136 503.5 21.5 21.5 ellipse_path stroke
0 0 0 nodecolor
6 /Times-Roman set_font
3131 505.7 moveto 10 (R25) alignedtext
0 0 0 nodecolor
6 /Times-Roman set_font
3123.5 498.7 moveto 25 (10805 ms) alignedtext
grestore
% R12--R25
gsave
1 setlinewidth
dotted
0 0 0 edgecolor
newpath 2296.33 647.23 moveto
2300.56 644.4 2305.26 641.74 2310 640 curveto
2452.19 587.67 2500.01 631.52 2649 604 curveto
2722.25 590.47 2737.86 575.12 2811 561 curveto
2940.26 536.05 2981.48 570.52 3105 525 curveto
3109.96 523.17 3114.93 520.41 3119.38 517.5 curveto
stroke
grestore
% R12--R31
gsave
1 setlinewidth
dotted
0 0 0 edgecolor
newpath 2296.3 647.15 moveto
2300.53 644.32 2305.24 641.69 2310 640 curveto
2492.4 575.25 2556.2 650.84 2744 604 curveto
2790.94 592.29 2797.15 573.09 2844 561 curveto
2922.49 540.75 3139.3 569.58 3207 525 curveto
3234.86 506.65 3249.9 469.17 3256.91 445.81 curveto
stroke
grestore
% R12--R41
gsave
1 setlinewidth
dotted
0 0 0 edgecolor
newpath 2258.17 659.44 moveto
2196.12 656.03 2013.73 643.14 1868 604 curveto
1778.49 579.96 1737.9 593.08 1675 525 curveto
1636.37 483.19 1677.68 441.77 1636 403 curveto
1586.12 356.6 1546.91 399.45 1487 367 curveto
1482.75 364.7 1478.67 361.52 1475.06 358.22 curveto
stroke
grestore
% R12--R46
gsave
1 setlinewidth
dotted
0 0 0 edgecolor
newpath 2258.57 659.52 moveto
2161.54 654.94 1762.87 634.6 1642 604 curveto
1470.24 560.52 1431.19 531.49 1276 446 curveto
1271.69 443.63 1267.22 440.8 1263.09 438.01 curveto
stroke
grestore
% R64
gsave
1 setlinewidth
0 0 0 nodecolor
2810 424.5 21.5 21.5 ellipse_path stroke
0 0 0 nodecolor
6 /Times-Roman set_font
2805 426.7 moveto 10 (R64) alignedtext
0 0 0 nodecolor
6 /Times-Roman set_font
2799 419.7 moveto 22 (5768 ms) alignedtext
grestore
% R12--R64
gsave
2 setlinewidth
bold
0 0 0 edgecolor
newpath 2296.38 647.37 moveto
2300.61 644.54 2305.3 641.84 2310 640 curveto
2410.82 600.45 2450.26 643.75 2551 604 curveto
2564.62 598.63 2737.25 476.94 2792.86 437.63 curveto
stroke
grestore
% R12--R82
gsave
1 setlinewidth
dotted
0 0 0 edgecolor
newpath 2258.5 660.39 moveto
2046.22 659.29 331.66 648.96 235 604 curveto
138.67 559.19 76 531.74 76 425.5 curveto
76 425.5 76 425.5 76 178.5 curveto
76 118.27 114.15 105.98 168 79 curveto
261.34 32.24 597.42 24.1 686.31 22.75 curveto
stroke
grestore
% R93
gsave
1 setlinewidth
0 0 0 nodecolor
3379 179.5 21.5 21.5 ellipse_path stroke
0 0 0 nodecolor
6 /Times-Roman set_font
3374 181.7 moveto 10 (R93) alignedtext
0 0 0 nodecolor
6 /Times-Roman set_font
3366.5 174.7 moveto 25 (12582 ms) alignedtext
grestore
% R12--R93
gsave
1 setlinewidth
dotted
0 0 0 edgecolor
newpath 2296.27 647.07 moveto
2300.51 644.25 2305.23 641.64 2310 640 curveto
2435.32 597.08 2773.4 619.09 2905 604 curveto
3113.7 580.07 3167.8 578.26 3371 525 curveto
3372.57 524.59 3590.07 447.33 3591 446 curveto
3602 430.37 3597.66 420.91 3591 403 curveto
3571.44 350.36 3440.71 233.85 3394.86 194.1 curveto
stroke
grestore
% R13--R23
gsave
1 setlinewidth
dotted
0 0 0 edgecolor
newpath 3889 560.87 moveto
3889 549.82 3889 536.25 3889 525.19 curveto
stroke
grestore
% R13--R73
gsave
2 setlinewidth
bold
0 0 0 edgecolor
newpath 3867.57 580.17 moveto
3806.54 576.44 3626.6 565.84 3477 561 curveto
2941.44 543.68 1600.06 568.6 1066 525 curveto
828.63 505.62 731.18 582.46 536 446 curveto
486.12 411.13 463.69 369.33 493 316 curveto
507.55 289.54 540.31 273.71 561.77 265.81 curveto
stroke
grestore
% R99
gsave
1 setlinewidth
0 0 0 nodecolor
4352 21.5 21.5 21.5 ellipse_path stroke
0 0 0 nodecolor
6 /Times-Roman set_font
4347 23.7 moveto 10 (R99) alignedtext
0 0 0 nodecolor
6 /Times-Roman set_font
4339.5 16.7 moveto 25 (17172 ms) alignedtext
grestore
% R13--R99
gsave
1 setlinewidth
dotted
0 0 0 edgecolor
newpath 3910.53 580.59 moveto
4019.38 574.75 4504 533.38 4504 259.5 curveto
4504 259.5 4504 259.5 4504 178.5 curveto
4504 103.44 4412.61 50.99 4371.56 31.21 curveto
stroke
grestore
% R28
gsave
1 setlinewidth
0 0 0 nodecolor
3323 424.5 21.5 21.5 ellipse_path stroke
0 0 0 nodecolor
6 /Times-Roman set_font
3318 426.7 moveto 10 (R28) alignedtext
0 0 0 nodecolor
6 /Times-Roman set_font
3312 419.7 moveto 22 (8615 ms) alignedtext
grestore
% R14--R28
gsave
1 setlinewidth
dotted
0 0 0 edgecolor
newpath 2896.68 580.59 moveto
2985.88 576.64 3321.29 559.56 3352 525 curveto
3372.91 501.46 3351.68 463.61 3336.15 442.01 curveto
stroke
grestore
% R14--R74
gsave
1 setlinewidth
dotted
0 0 0 edgecolor
newpath 2862.89 564.45 moveto
2821.79 506.58 2689.8 321.02 2684 316 curveto
2626.42 266.19 2605.3 257.57 2532 237 curveto
2373.11 192.41 1836.95 182.42 1722.58 180.78 curveto
stroke
grestore
% R15--R27
gsave
1 setlinewidth
dotted
0 0 0 edgecolor
newpath 2090.02 567.79 moveto
2076.95 556.48 2058.07 539.93 2042 525 curveto
2021.97 506.39 2022.52 494.1 1998 482 curveto
1989.55 477.83 1708.04 439.36 1627.39 428.4 curveto
stroke
grestore
% R30
gsave
1 setlinewidth
0 0 0 nodecolor
2181 424.5 21.5 21.5 ellipse_path stroke
0 0 0 nodecolor
6 /Times-Roman set_font
2176 426.7 moveto 10 (R30) alignedtext
0 0 0 nodecolor
6 /Times-Roman set_font
2168.5 419.7 moveto 25 (10289 ms) alignedtext
grestore
% R15--R30
gsave
1 setlinewidth
dotted
0 0 0 edgecolor
newpath 2118.33 564.77 moveto
2126.05 553.82 2135.85 538.99 2143 525 curveto
2156.54 498.49 2168.08 465.97 2174.78 445.48 curveto
stroke
grestore
% R15--R33
gsave
1 setlinewidth
dotted
0 0 0 edgecolor
newpath 2087.72 571.01 moveto
2082.05 567.78 2075.78 564.22 2070 561 curveto
2040.81 544.73 2033.19 541.27 2004 525 curveto
1998.22 521.78 1991.95 518.22 1986.28 514.99 curveto
stroke
grestore
% R34
gsave
1 setlinewidth
0 0 0 nodecolor
2341 341.5 21.5 21.5 ellipse_path stroke
0 0 0 nodecolor
6 /Times-Roman set_font
2336 343.7 moveto 10 (R34) alignedtext
0 0 0 nodecolor
6 /Times-Roman set_font
2330 336.7 moveto 22 (9119 ms) alignedtext
grestore
% R15--R34
gsave
1 setlinewidth
dotted
0 0 0 edgecolor
newpath 2123.41 569.52 moveto
2127.53 566.71 2131.91 563.74 2136 561 curveto
2213.31 509.19 2255.74 520.88 2311 446 curveto
2329.33 421.16 2336.49 385.35 2339.27 363.02 curveto
stroke
grestore
% R53
gsave
1 setlinewidth
0 0 0 nodecolor
1468 424.5 21.5 21.5 ellipse_path stroke
0 0 0 nodecolor
6 /Times-Roman set_font
1463 426.7 moveto 10 (R53) alignedtext
0 0 0 nodecolor
6 /Times-Roman set_font
1457 419.7 moveto 22 (5832 ms) alignedtext
grestore
% R15--R53
gsave
2 setlinewidth
bold
0 0 0 edgecolor
newpath 2085 576.79 moveto
2063.32 572.1 2028.46 565.04 1998 561 curveto
1893.5 547.15 1614.13 581.29 1525 525 curveto
1496.38 506.93 1480.64 468.98 1473.29 445.52 curveto
stroke
grestore
% R15--R63
gsave
1 setlinewidth
dotted
0 0 0 edgecolor
newpath 2122.91 568.63 moveto
2127.04 565.86 2131.56 563.13 2136 561 curveto
2185.84 537.13 2207.21 552.73 2255 525 curveto
2368.26 459.28 2460.53 325.08 2491.15 277.07 curveto
stroke
grestore
% R92
gsave
1 setlinewidth
0 0 0 nodecolor
2897 21.5 21.5 21.5 ellipse_path stroke
0 0 0 nodecolor
6 /Times-Roman set_font
2892 23.7 moveto 10 (R92) alignedtext
0 0 0 nodecolor
6 /Times-Roman set_font
2884.5 16.7 moveto 25 (12086 ms) alignedtext
grestore
% R15--R92
gsave
1 setlinewidth
dotted
0 0 0 edgecolor
newpath 2085.04 576.48 moveto
2063.39 571.53 2028.55 564.27 1998 561 curveto
1842.83 544.39 743.83 568.62 594 525 curveto
373.97 460.95 152 488.66 152 259.5 curveto
152 259.5 152 259.5 152 178.5 curveto
152 65.08 276.11 102.81 387 79 curveto
644.03 23.81 2645.71 22.46 2875.52 22.49 curveto
stroke
grestore
% R15--R97
gsave
1 setlinewidth
dotted
0 0 0 edgecolor
newpath 2122.24 567.99 moveto
2126.48 565.17 2131.21 562.57 2136 561 curveto
2353.6 489.57 2939.6 559.63 3166 525 curveto
3296.78 505 3330.58 496.17 3453 446 curveto
3489.27 431.14 3494.72 420.08 3530 403 curveto
3567.67 384.77 3587.27 396.44 3617 367 curveto
3709.58 275.32 3714.2 102.24 3712.87 42.99 curveto
stroke
grestore
% R16
gsave
1 setlinewidth
0 0 0 nodecolor
2521 582.5 21.5 21.5 ellipse_path stroke
0 0 0 nodecolor
6 /Times-Roman set_font
2516 584.7 moveto 10 (R16) alignedtext
0 0 0 nodecolor
6 /Times-Roman set_font
2508.5 577.7 moveto 25 (13891 ms) alignedtext
grestore
% R16--R30
gsave
1 setlinewidth
dotted
0 0 0 edgecolor
newpath 2501.75 572.67 moveto
2442.04 545.27 2260.45 461.95 2200.46 434.43 curveto
stroke
grestore
% R16--R34
gsave
1 setlinewidth
dotted
0 0 0 edgecolor
newpath 2518.84 560.83 moveto
2514.09 524.79 2499.68 449.79 2459 403 curveto
2432.87 372.94 2388.17 355.88 2361.93 347.98 curveto
stroke
grestore
% R16--R40
gsave
1 setlinewidth
dotted
0 0 0 edgecolor
newpath 2542.47 577.95 moveto
2569.56 573.55 2617.64 566.03 2659 561 curveto
2827.41 540.53 2877.24 576.11 3039 525 curveto
3045.31 523.01 3051.73 519.8 3057.37 516.51 curveto
stroke
grestore
% R58
gsave
1 setlinewidth
0 0 0 nodecolor
1827 258.5 21.5 21.5 ellipse_path stroke
0 0 0 nodecolor
6 /Times-Roman set_font
1822 260.7 moveto 10 (R58) alignedtext
0 0 0 nodecolor
6 /Times-Roman set_font
1814.5 253.7 moveto 25 (14941 ms) alignedtext
grestore
% R16--R58
gsave
1 setlinewidth
dotted
0 0 0 edgecolor
newpath 2505.77 567.28 moveto
2470.11 533.73 2379.01 446.48 2310 367 curveto
2291.29 345.45 2295.73 330.23 2271 316 curveto
2266.33 313.31 1936.61 272.89 1848.47 262.12 curveto
stroke
grestore
% R16--R63
gsave
1 setlinewidth
dotted
0 0 0 edgecolor
newpath 2537.63 568.66 moveto
2586.89 529.1 2724.71 406.25 2661 316 curveto
2629.41 271.25 2559.13 261.73 2523.54 259.85 curveto
stroke
grestore
% R94
gsave
1 setlinewidth
0 0 0 nodecolor
1455 258.5 21.5 21.5 ellipse_path stroke
0 0 0 nodecolor
6 /Times-Roman set_font
1450 260.7 moveto 10 (R94) alignedtext
0 0 0 nodecolor
6 /Times-Roman set_font
1442.5 253.7 moveto 25 (12155 ms) alignedtext
grestore
% R16--R94
gsave
2 setlinewidth
bold
0 0 0 edgecolor
newpath 2499.36 580.41 moveto
2421.74 576.24 2157.99 559.78 2082 525 curveto
2055.96 513.08 2058.44 496.94 2034 482 curveto
1931.21 419.16 1565.79 296.2 1475.36 266.21 curveto
stroke
grestore
% R16--R99
gsave
2 setlinewidth
bold
0 0 0 edgecolor
newpath 2542.53 579.91 moveto
2594.4 576.13 2730.35 566.51 2844 561 curveto
2963.37 555.21 3804.41 558.95 3919 525 curveto
4135.44 460.87 4352 485.24 4352 259.5 curveto
4352 259.5 4352 259.5 4352 178.5 curveto
4352 130.02 4352 73.07 4352 43.19 curveto
stroke
grestore
% R21
gsave
1 setlinewidth
0 0 0 nodecolor
2113 503.5 21.5 21.5 ellipse_path stroke
0 0 0 nodecolor
6 /Times-Roman set_font
2108 505.7 moveto 10 (R21) alignedtext
0 0 0 nodecolor
6 /Times-Roman set_font
2100.5 498.7 moveto 25 (15483 ms) alignedtext
grestore
% R17--R21
gsave
1 setlinewidth
dotted
0 0 0 edgecolor
newpath 1917.22 570.79 moveto
1923.38 567.41 1930.38 563.82 1937 561 curveto
1991.47 537.8 2058.84 518.69 2092.23 509.83 curveto
stroke
grestore
% R17--R51
gsave
1 setlinewidth
dotted
0 0 0 edgecolor
newpath 1877.34 581.58 moveto
1749.79 581.84 1099.93 580.46 1033 525 curveto
984.5 484.82 982.37 401.87 984.29 363.2 curveto
stroke
grestore
% R62
gsave
1 setlinewidth
0 0 0 nodecolor
2948 424.5 21.5 21.5 ellipse_path stroke
0 0 0 nodecolor
6 /Times-Roman set_font
2943 426.7 moveto 10 (R62) alignedtext
0 0 0 nodecolor
6 /Times-Roman set_font
2937 419.7 moveto 22 (7788 ms) alignedtext
grestore
% R17--R62
gsave
2 setlinewidth
bold
0 0 0 edgecolor
newpath 1916.46 569.91 moveto
1922.68 566.38 1929.91 562.92 1937 561 curveto
1992.26 546.01 2927.23 566.19 2967 525 curveto
2988.13 503.11 2972.03 465.37 2959.36 443.19 curveto
stroke
grestore
% R75
gsave
1 setlinewidth
0 0 0 nodecolor
2003 341.5 21.5 21.5 ellipse_path stroke
0 0 0 nodecolor
6 /Times-Roman set_font
1998 343.7 moveto 10 (R75) alignedtext
0 0 0 nodecolor
6 /Times-Roman set_font
1990.5 336.7 moveto 25 (11187 ms) alignedtext
grestore
% R17--R75
gsave
1 setlinewidth
dotted
0 0 0 edgecolor
newpath 1905.99 561.88 moveto
1913.3 541.68 1925.31 509.38 1937 482 curveto
1955.72 438.14 1980.32 387.83 1993.57 361.24 curveto
stroke
grestore
% R80
gsave
1 setlinewidth
0 0 0 nodecolor
114 21.5 21.5 21.5 ellipse_path stroke
0 0 0 nodecolor
6 /Times-Roman set_font
109 23.7 moveto 10 (R80) alignedtext
0 0 0 nodecolor
6 /Times-Roman set_font
101.5 16.7 moveto 25 (15999 ms) alignedtext
grestore
% R17--R80
gsave
2 setlinewidth
bold
0 0 0 edgecolor
newpath 1877.52 580.9 moveto
1699.55 575.93 473.67 541.16 398 525 curveto
222.57 487.54 38 521.89 38 342.5 curveto
38 342.5 38 342.5 38 178.5 curveto
38 133.01 40.58 119.13 62 79 curveto
70.91 62.3 85.94 46.74 97.55 36.2 curveto
stroke
grestore
% R18--R35
gsave
1 setlinewidth
dotted
0 0 0 edgecolor
newpath 287.66 580.95 moveto
437.26 577.09 1319.14 553.39 1586 525 curveto
1620.89 521.29 1660.99 513.77 1684.87 508.94 curveto
stroke
grestore
% R18--R46
gsave
1 setlinewidth
dotted
0 0 0 edgecolor
newpath 287.51 579 moveto
420.2 563.53 1124.86 480.24 1215 446 curveto
1219.95 444.12 1224.9 441.34 1229.36 438.43 curveto
stroke
grestore
% R76
gsave
1 setlinewidth
0 0 0 nodecolor
418 100.5 21.5 21.5 ellipse_path stroke
0 0 0 nodecolor
6 /Times-Roman set_font
413 102.7 moveto 10 (R76) alignedtext
0 0 0 nodecolor
6 /Times-Roman set_font
405.5 95.7 moveto 25 (18299 ms) alignedtext
grestore
% R18--R76
gsave
1 setlinewidth
dotted
0 0 0 edgecolor
newpath 254.55 564.14 moveto
227.54 520.87 164.83 405.3 202 316 curveto
243.33 216.71 355.44 139.73 399.69 112.34 curveto
stroke
grestore
% R18--R86
gsave
1 setlinewidth
dotted
0 0 0 edgecolor
newpath 285.56 573.44 moveto
366.95 540.02 686.97 409.71 955 316 curveto
1008.87 297.16 1072.86 276.3 1104.78 266 curveto
stroke
grestore
% R19
gsave
1 setlinewidth
0 0 0 nodecolor
1185 424.5 21.5 21.5 ellipse_path stroke
0 0 0 nodecolor
6 /Times-Roman set_font
1180 426.7 moveto 10 (R19) alignedtext
0 0 0 nodecolor
6 /Times-Roman set_font
1172.5 419.7 moveto 25 (11036 ms) alignedtext
grestore
% R19--R76
gsave
1 setlinewidth
dotted
0 0 0 edgecolor
newpath 1163.41 422.29 moveto
1051.85 415.97 544.89 386.27 518 367 curveto
436.12 308.33 421.24 173.97 418.57 122.29 curveto
stroke
grestore
% R19--R81
gsave
2 setlinewidth
bold
0 0 0 edgecolor
newpath 1201.24 409.97 moveto
1205.47 407.15 1210.2 404.56 1215 403 curveto
1344.81 360.79 2306.93 377.83 2443 367 curveto
2503.86 362.15 2575.23 351.47 2609.93 345.95 curveto
stroke
grestore
% R98
gsave
1 setlinewidth
0 0 0 nodecolor
1185 341.5 21.5 21.5 ellipse_path stroke
0 0 0 nodecolor
6 /Times-Roman set_font
1180 343.7 moveto 10 (R98) alignedtext
0 0 0 nodecolor
6 /Times-Roman set_font
1172.5 336.7 moveto 25 (11731 ms) alignedtext
grestore
% R19--R98
gsave
2 setlinewidth
bold
0 0 0 edgecolor
newpath 1185 402.64 moveto
1185 390.45 1185 375.13 1185 363.01 curveto
stroke
grestore
% R20
gsave
1 setlinewidth
0 0 0 nodecolor
3535 661.5 21.5 21.5 ellipse_path stroke
0 0 0 nodecolor
6 /Times-Roman set_font
3530 663.7 moveto 10 (R20) alignedtext
0 0 0 nodecolor
6 /Times-Roman set_font
3524 656.7 moveto 22 (2623 ms) alignedtext
grestore
% R20--R22
gsave
1 setlinewidth
dotted
0 0 0 edgecolor
newpath 3519.27 646.73 moveto
3503.35 632.8 3478.87 611.39 3462.89 597.41 curveto
stroke
grestore
% R20--R26
gsave
2 setlinewidth
bold
0 0 0 edgecolor
newpath 3555.53 654.35 moveto
3604.58 638.91 3730.73 594.7 3815 525 curveto
3843.2 501.68 3866.58 465.45 3879.11 443.75 curveto
stroke
grestore
% R20--R57
gsave
2 setlinewidth
bold
0 0 0 edgecolor
newpath 3513.41 659.6 moveto
3437.12 656.47 3173.06 645.84 2955 640 curveto
2845.52 637.07 1082.6 651.67 984 604 curveto
943.06 584.21 934.34 567.8 919 525 curveto
887.55 437.27 923.36 323.63 940.2 278.85 curveto
stroke
grestore
% R60
gsave
1 setlinewidth
0 0 0 nodecolor
3852 341.5 21.5 21.5 ellipse_path stroke
0 0 0 nodecolor
6 /Times-Roman set_font
3847 343.7 moveto 10 (R60) alignedtext
0 0 0 nodecolor
6 /Times-Roman set_font
3841 336.7 moveto 22 (6639 ms) alignedtext
grestore
% R20--R60
gsave
2 setlinewidth
bold
0 0 0 edgecolor
newpath 3551.68 647.82 moveto
3592.61 616.26 3700.27 530.65 3777 446 curveto
3802.33 418.05 3827.09 381.58 3840.87 360.23 curveto
stroke
grestore
% R20--R62
gsave
2 setlinewidth
bold
0 0 0 edgecolor
newpath 3528.39 640.82 moveto
3519.9 618.42 3503.07 582.18 3477 561 curveto
3313.45 428.1 3222.45 492.9 3017 446 curveto
3000.43 442.22 2981.99 436.67 2968.35 432.3 curveto
stroke
grestore
% R20--R64
gsave
2 setlinewidth
bold
0 0 0 edgecolor
newpath 3513.35 660.29 moveto
3429.52 658.61 3120.26 644.21 2906 525 curveto
2900.99 522.21 2850.02 468.2 2824.46 440.95 curveto
stroke
grestore
% R20--R77
gsave
2 setlinewidth
bold
0 0 0 edgecolor
newpath 3556.13 657.4 moveto
3636.38 645.64 3917.9 604.36 3919 604 curveto
4132.67 533.95 4250.07 559.68 4366 367 curveto
4407.85 297.45 4331.07 184.15 4294 158 curveto
4240.89 120.53 3765.64 105.11 3657.73 102.08 curveto
stroke
grestore
% R20--R81
gsave
2 setlinewidth
bold
0 0 0 edgecolor
newpath 3513.52 659.97 moveto
3423.91 657.49 3080 645.42 2981 604 curveto
2953.33 592.42 2953.99 577.58 2929 561 curveto
2900.18 541.87 2889.1 543.7 2860 525 curveto
2763.82 463.19 2743.81 441.4 2657 367 curveto
2653.42 363.93 2649.68 360.53 2646.18 357.25 curveto
stroke
grestore
% R20--R91
gsave
2 setlinewidth
bold
0 0 0 edgecolor
newpath 3555.31 653.88 moveto
3606.09 637.4 3742.81 593.53 3858 561 curveto
3919.83 543.54 3941.04 554.72 3998 525 curveto
4146.09 447.74 4213.31 431.81 4283 280 curveto
4295.18 253.47 4283.57 219.51 4273.91 198.91 curveto
stroke
grestore
% R39
gsave
1 setlinewidth
0 0 0 nodecolor
3048 424.5 21.5 21.5 ellipse_path stroke
0 0 0 nodecolor
6 /Times-Roman set_font
3043 426.7 moveto 10 (R39) alignedtext
0 0 0 nodecolor
6 /Times-Roman set_font
3035.5 419.7 moveto 25 (17986 ms) alignedtext
grestore
% R21--R39
gsave
1 setlinewidth
dotted
0 0 0 edgecolor
newpath 2134.61 502.82 moveto
2232.75 503.94 2646.05 504.71 2978 446 curveto
2995.21 442.96 3014.2 437.24 3028.06 432.61 curveto
stroke
grestore
% R21--R42
gsave
1 setlinewidth
dotted
0 0 0 edgecolor
newpath 2114.88 481.87 moveto
2115.89 470.73 2117.13 457.03 2118.14 445.92 curveto
stroke
grestore
% R21--R58
gsave
1 setlinewidth
dotted
0 0 0 edgecolor
newpath 2100.53 485.6 moveto
2082.74 462.83 2047.76 422.87 2008 403 curveto
1922.51 360.28 1857.66 440.02 1796 367 curveto
1773.69 340.59 1797.39 298.93 1813.91 276 curveto
stroke
grestore
% R21--R71
gsave
2 setlinewidth
bold
0 0 0 edgecolor
newpath 2134.56 501.73 moveto
2304.32 495.65 3419.88 455.37 3453 446 curveto
3490.72 435.33 3492.62 414.79 3530 403 curveto
3679.97 355.68 3740.2 435 3882 367 curveto
3924.54 346.6 3959.66 301.74 3976.77 276.9 curveto
stroke
grestore
% R21--R80
gsave
1 setlinewidth
dotted
0 0 0 edgecolor
newpath 2091.94 497.78 moveto
2068.98 492.85 2031.09 485.4 1998 482 curveto
1714.93 452.95 998.12 496.06 718 446 curveto
427.33 394.05 303.67 366.42 138 122 curveto
121.85 98.17 116.53 64.66 114.8 43.26 curveto
stroke
grestore
% R22--R25
gsave
1 setlinewidth
dotted
0 0 0 edgecolor
newpath 3426.71 575.33 moveto
3411.92 570.97 3391.33 565.17 3373 561 curveto
3284.51 540.86 3257.33 555.9 3172 525 curveto
3165.78 522.75 3159.38 519.47 3153.73 516.19 curveto
stroke
grestore
% R22--R62
gsave
1 setlinewidth
dotted
0 0 0 edgecolor
newpath 3426.91 574.5 moveto
3396.42 563.86 3336.67 542.97 3286 525 curveto
3232.6 506.06 3220.61 497.09 3166 482 curveto
3086.52 460.03 3061.27 474.77 2984 446 curveto
2977.8 443.69 2971.41 440.39 2965.76 437.12 curveto
stroke
grestore
% R22--R71
gsave
1 setlinewidth
dotted
0 0 0 edgecolor
newpath 3468.69 580.89 moveto
3550.35 578.31 3838.65 566.36 3919 525 curveto
3961.24 503.26 3973.84 490.3 3991 446 curveto
4013.11 388.93 4000.94 314.47 3993.05 279.41 curveto
stroke
grestore
% R22--R79
gsave
2 setlinewidth
bold
0 0 0 edgecolor
newpath 3468.68 580.84 moveto
3554.53 577.95 3870.37 564.78 3961 525 curveto
4058.78 482.09 4097.82 464.21 4142 367 curveto
4168.24 309.27 4135.23 232.91 4117.24 198.58 curveto
stroke
grestore
% R95
gsave
1 setlinewidth
0 0 0 nodecolor
2982 341.5 21.5 21.5 ellipse_path stroke
0 0 0 nodecolor
6 /Times-Roman set_font
2977 343.7 moveto 10 (R95) alignedtext
0 0 0 nodecolor
6 /Times-Roman set_font
2969.5 336.7 moveto 25 (14122 ms) alignedtext
grestore
% R22--R95
gsave
2 setlinewidth
bold
0 0 0 edgecolor
newpath 3428.9 570.57 moveto
3393.79 549.89 3313.43 505.04 3240 482 curveto
3144.21 451.94 3093.63 510.86 3017 446 curveto
2992.53 425.29 2985.12 386.82 2982.9 363.06 curveto
stroke
grestore
% R23--R26
gsave
2 setlinewidth
bold
0 0 0 edgecolor
newpath 3889 481.87 moveto
3889 470.82 3889 457.25 3889 446.19 curveto
stroke
grestore
% R23--R78
gsave
1 setlinewidth
dotted
0 0 0 edgecolor
newpath 3872.19 489.6 moveto
3845.2 469.3 3790.03 429.49 3739 403 curveto
3644.58 353.98 3620.27 337.11 3516 316 curveto
3231.44 258.39 2499.62 300.27 2210 280 curveto
2151.64 275.92 2083.15 267.11 2049.24 262.48 curveto
stroke
grestore
% R88
gsave
1 setlinewidth
0 0 0 nodecolor
3158 100.5 21.5 21.5 ellipse_path stroke
0 0 0 nodecolor
6 /Times-Roman set_font
3153 102.7 moveto 10 (R88) alignedtext
0 0 0 nodecolor
6 /Times-Roman set_font
3145.5 95.7 moveto 25 (19033 ms) alignedtext
grestore
% R23--R88
gsave
1 setlinewidth
dotted
0 0 0 edgecolor
newpath 3901.11 485.09 moveto
3907.83 474.36 3915.51 460.01 3919 446 curveto
3933.05 389.56 3939.35 362.19 3904 316 curveto
3786.07 161.91 3685.32 204.77 3497 158 curveto
3378.58 128.59 3233.03 110.11 3179.26 103.87 curveto
stroke
grestore
% R24--R29
gsave
1 setlinewidth
dotted
0 0 0 edgecolor
newpath 2324.39 647.48 moveto
2319.94 644.57 2314.97 641.82 2310 640 curveto
2181.4 592.96 2134.1 646.74 2004 604 curveto
1997.71 601.94 1991.3 598.71 1985.65 595.42 curveto
stroke
grestore
% R48
gsave
1 setlinewidth
0 0 0 nodecolor
2103 341.5 21.5 21.5 ellipse_path stroke
0 0 0 nodecolor
6 /Times-Roman set_font
2098 343.7 moveto 10 (R48) alignedtext
0 0 0 nodecolor
6 /Times-Roman set_font
2090.5 336.7 moveto 25 (18650 ms) alignedtext
grestore
% R24--R48
gsave
1 setlinewidth
dotted
0 0 0 edgecolor
newpath 2335.43 640.71 moveto
2321.46 594.14 2280.97 476.06 2211 403 curveto
2185.88 376.77 2146.86 358.81 2123.24 349.62 curveto
stroke
grestore
% R24--R68
gsave
2 setlinewidth
bold
0 0 0 edgecolor
newpath 2343.4 640 moveto
2347.77 594.41 2353.02 482.35 2311 403 curveto
2304.69 391.08 2276.51 368.75 2257.89 354.8 curveto
stroke
grestore
% R24--R85
gsave
1 setlinewidth
dotted
0 0 0 edgecolor
newpath 2362.62 659.25 moveto
2504.01 651.08 3291.15 605.56 3297 604 curveto
3338.28 592.96 3342.66 575.1 3383 561 curveto
3455.91 535.52 3485.99 563.39 3553 525 curveto
3563.31 519.1 3620.71 457.07 3625 446 curveto
3647.04 389.09 3636.08 314.87 3628.77 279.69 curveto
stroke
grestore
% R25--R30
gsave
1 setlinewidth
dotted
0 0 0 edgecolor
newpath 3119.48 489.22 moveto
3115.02 486.32 3110.03 483.63 3105 482 curveto
2924.08 423.41 2437.57 477.32 2250 446 curveto
2233.11 443.18 2214.54 437.51 2200.92 432.84 curveto
stroke
grestore
% R25--R31
gsave
1 setlinewidth
dotted
0 0 0 edgecolor
newpath 3154.05 491.47 moveto
3178.01 476.83 3220.05 451.14 3243.98 436.51 curveto
stroke
grestore
% R25--R64
gsave
2 setlinewidth
bold
0 0 0 edgecolor
newpath 3119.3 489.73 moveto
3114.84 486.82 3109.9 484 3105 482 curveto
3026.21 449.91 3000.55 462 2917 446 curveto
2887.09 440.27 2852.48 433.64 2830.91 429.51 curveto
stroke
grestore
% R25--R93
gsave
1 setlinewidth
dotted
0 0 0 edgecolor
newpath 3150.33 487.11 moveto
3175.68 459.95 3226.2 406.07 3231 403 curveto
3272.55 376.4 3302.97 403.64 3336 367 curveto
3378.6 319.73 3381.53 238.82 3380.3 201.05 curveto
stroke
grestore
% R26--R59
gsave
2 setlinewidth
bold
0 0 0 edgecolor
newpath 3908.82 416.17 moveto
3949.15 401.25 4040.6 367.43 4084.12 351.33 curveto
stroke
grestore
% R26--R66
gsave
2 setlinewidth
bold
0 0 0 edgecolor
newpath 3867.34 421.59 moveto
3818.22 417.35 3694.63 407.19 3591 403 curveto
3508.73 399.67 701.45 402.16 627 367 curveto
600.19 354.34 603.58 338.27 584 316 curveto
569.67 299.7 560.74 299.4 551 280 curveto
538.37 254.85 534.11 222.27 532.69 201.37 curveto
stroke
grestore
% R83
gsave
1 setlinewidth
0 0 0 nodecolor
4226 258.5 21.5 21.5 ellipse_path stroke
0 0 0 nodecolor
6 /Times-Roman set_font
4221 260.7 moveto 10 (R83) alignedtext
0 0 0 nodecolor
6 /Times-Roman set_font
4215 253.7 moveto 22 (9593 ms) alignedtext
grestore
% R26--R83
gsave
2 setlinewidth
bold
0 0 0 edgecolor
newpath 3910.48 423.44 moveto
3956.52 422.37 4066.67 414.61 4142 367 curveto
4177.04 344.86 4203.43 302.75 4216.62 278.33 curveto
stroke
grestore
% R26--R96
gsave
2 setlinewidth
bold
0 0 0 edgecolor
newpath 3893.76 403.4 moveto
3898.07 379.94 3901.16 341.14 3882 316 curveto
3871.96 302.83 3409.2 158.03 3409 158 curveto
3201.76 122.44 1612.53 103.96 1408.53 101.73 curveto
stroke
grestore
% R27--R94
gsave
1 setlinewidth
dotted
0 0 0 edgecolor
newpath 1585.44 417.6 moveto
1540.01 404.48 1434.74 373.5 1430 367 curveto
1410.24 339.91 1429.18 299.62 1443.14 276.84 curveto
stroke
grestore
% R54
gsave
1 setlinewidth
0 0 0 nodecolor
3486 341.5 21.5 21.5 ellipse_path stroke
0 0 0 nodecolor
6 /Times-Roman set_font
3481 343.7 moveto 10 (R54) alignedtext
0 0 0 nodecolor
6 /Times-Roman set_font
3473.5 336.7 moveto 25 (19071 ms) alignedtext
grestore
% R28--R54
gsave
2 setlinewidth
bold
0 0 0 edgecolor
newpath 3341.05 412.56 moveto
3346.71 409.31 3353.03 405.86 3359 403 curveto
3398.22 384.19 3411.57 387.36 3450 367 curveto
3456.55 363.53 3463.36 359.13 3469.27 355.01 curveto
stroke
grestore
% R28--R75
gsave
2 setlinewidth
bold
0 0 0 edgecolor
newpath 3306.49 410.18 moveto
3302.04 407.28 3297.04 404.6 3292 403 curveto
3033.44 321.06 2338.58 416.98 2072 367 curveto
2054.76 363.77 2036.05 356.9 2022.48 351.26 curveto
stroke
grestore
% R28--R77
gsave
2 setlinewidth
bold
0 0 0 edgecolor
newpath 3338.47 409.47 moveto
3341.77 407.02 3345.36 404.71 3349 403 curveto
3417.7 370.66 3456.93 414.7 3516 367 curveto
3557.22 333.71 3611.34 177.1 3629.64 121.3 curveto
stroke
grestore
% R28--R78
gsave
1 setlinewidth
dotted
0 0 0 edgecolor
newpath 3306.25 410.84 moveto
3301.8 407.92 3296.87 405.07 3292 403 curveto
3224.94 374.43 3200 393.25 3132 367 curveto
3089.11 350.44 3086.19 328.68 3042 316 curveto
2864.11 264.96 2394.5 294.37 2210 280 curveto
2151.67 275.46 2083.17 266.86 2049.25 262.37 curveto
stroke
grestore
% R28--R92
gsave
1 setlinewidth
dotted
0 0 0 edgecolor
newpath 3339.44 410.4 moveto
3342.6 407.92 3345.89 405.37 3349 403 curveto
3370.5 386.63 3384.3 390.3 3398 367 curveto
3445.14 286.81 3460.41 235.52 3409 158 curveto
3352.53 72.84 3008.21 33.42 2918.41 24.5 curveto
stroke
grestore
% R29--R33
gsave
1 setlinewidth
dotted
0 0 0 edgecolor
newpath 1968 560.87 moveto
1968 549.82 1968 536.25 1968 525.19 curveto
stroke
grestore
% R29--R57
gsave
2 setlinewidth
bold
0 0 0 edgecolor
newpath 1950.04 569.93 moveto
1943.65 566.4 1936.24 562.94 1929 561 curveto
1833.3 535.32 1121.75 577.94 1038 525 curveto
953.46 471.56 946.65 332.83 947.26 280.18 curveto
stroke
grestore
% R29--R69
gsave
1 setlinewidth
dotted
0 0 0 edgecolor
newpath 1950.04 569.94 moveto
1943.65 566.41 1936.24 562.95 1929 561 curveto
1836.32 536.07 1135.93 590.73 1066 525 curveto
1021.2 482.9 1033.15 400.55 1041.75 362.57 curveto
stroke
grestore
% R29--R74
gsave
1 setlinewidth
dotted
0 0 0 edgecolor
newpath 1949.7 570.75 moveto
1901.09 542.05 1771.61 464.55 1759 446 curveto
1705.74 367.64 1739.26 329.09 1717 237 curveto
1714.03 224.71 1710.18 211.07 1707.01 200.27 curveto
stroke
grestore
% R29--R92
gsave
1 setlinewidth
dotted
0 0 0 edgecolor
newpath 1988.77 576.56 moveto
2010.23 571.69 2044.75 564.48 2075 561 curveto
2175.75 549.43 2892.72 562.35 2987 525 curveto
3011.9 515.14 3059.37 465.23 3078 446 curveto
3095.15 428.3 3096.75 421.53 3113 403 curveto
3127.51 386.45 3136.2 386.17 3147 367 curveto
3210.46 254.35 3270.25 178.75 3188 79 curveto
3153.62 37.31 2979.83 26 2918.48 23.28 curveto
stroke
grestore
% R30--R52
gsave
2 setlinewidth
bold
0 0 0 edgecolor
newpath 2164.36 410.57 moveto
2159.9 407.66 2154.94 404.88 2150 403 curveto
2045.51 363.2 2009.83 392.67 1901 367 curveto
1882.3 362.59 1861.57 355.53 1846.83 350.12 curveto
stroke
grestore
% R30--R58
gsave
1 setlinewidth
dotted
0 0 0 edgecolor
newpath 2164.28 410.76 moveto
2159.83 407.85 2154.89 405.02 2150 403 curveto
2075.41 372.17 2045.74 399.82 1972 367 curveto
1919.04 343.43 1866.9 297.78 1842.05 274.28 curveto
stroke
grestore
% R30--R78
gsave
2 setlinewidth
bold
0 0 0 edgecolor
newpath 2163.58 411.32 moveto
2159.23 408.46 2154.51 405.51 2150 403 curveto
2116.65 384.42 2098.4 394.58 2072 367 curveto
2048.44 342.38 2036.81 303.42 2031.63 279.78 curveto
stroke
grestore
% R30--R81
gsave
2 setlinewidth
bold
0 0 0 edgecolor
newpath 2201.32 416.56 moveto
2214.95 412.12 2233.38 406.56 2250 403 curveto
2367.95 377.75 2400.2 387.91 2519 367 curveto
2550.95 361.38 2587.62 352.98 2610.05 347.62 curveto
stroke
grestore
% R31--R55
gsave
2 setlinewidth
bold
0 0 0 edgecolor
newpath 3264.52 403.06 moveto
3266.04 390.78 3267.96 375.21 3269.48 362.93 curveto
stroke
grestore
% R31--R93
gsave
2 setlinewidth
bold
0 0 0 edgecolor
newpath 3279.1 411.01 moveto
3283.23 408.22 3287.7 405.39 3292 403 curveto
3326.8 383.69 3351.79 400.03 3374 367 curveto
3408.61 315.53 3394.24 236.7 3384.8 200.25 curveto
stroke
grestore
% R32--R49
gsave
2 setlinewidth
bold
0 0 0 edgecolor
newpath 1117.83 497.93 moveto
1151.96 490 1221.44 472.02 1276 446 curveto
1280.78 443.72 1285.67 440.8 1290.12 437.88 curveto
stroke
grestore
% R32--R76
gsave
1 setlinewidth
dotted
0 0 0 edgecolor
newpath 1075.37 500.81 moveto
975.16 492.93 559.96 459.56 536 446 curveto
430.81 386.49 438.54 320.1 418 201 curveto
413.36 174.1 414.45 142.51 415.96 122.26 curveto
stroke
grestore
% R32--R85
gsave
1 setlinewidth
dotted
0 0 0 edgecolor
newpath 1118.82 501.24 moveto
1181.78 497.64 1369.24 487.26 1525 482 curveto
1626.52 478.57 3260.54 488.06 3353 446 curveto
3376.49 435.32 3369.46 415.55 3392 403 curveto
3469.39 359.93 3521.1 425.04 3588 367 curveto
3613.27 345.07 3620.86 304.86 3623.1 280.32 curveto
stroke
grestore
% R32--R86
gsave
1 setlinewidth
dotted
0 0 0 edgecolor
newpath 1099.39 481.78 moveto
1104.68 435.87 1117.33 326.03 1122.62 280.17 curveto
stroke
grestore
% R33--R42
gsave
1 setlinewidth
dotted
0 0 0 edgecolor
newpath 1987.48 493.48 moveto
2010.69 482.63 2050.52 463.66 2084 446 curveto
2089.85 442.91 2096.15 439.4 2101.81 436.16 curveto
stroke
grestore
% R33--R49
gsave
1 setlinewidth
dotted
0 0 0 edgecolor
newpath 1946.35 500.58 moveto
1835.73 490.77 1338.84 446.66 1337 446 curveto
1332.25 444.3 1327.54 441.66 1323.31 438.83 curveto
stroke
grestore
% R33--R78
gsave
1 setlinewidth
dotted
0 0 0 edgecolor
newpath 1963.72 482.16 moveto
1957.26 446.75 1948.16 372.2 1972 316 curveto
1979.93 297.31 1997.22 281.45 2010.5 271.34 curveto
stroke
grestore
% R34--R63
gsave
2 setlinewidth
bold
0 0 0 edgecolor
newpath 2358.19 327.91 moveto
2364.02 323.88 2370.67 319.55 2377 316 curveto
2412.73 295.97 2456.87 277.35 2482 267.29 curveto
stroke
grestore
% R34--R73
gsave
1 setlinewidth
dotted
0 0 0 edgecolor
newpath 2321.53 331.85 moveto
2307.73 326.18 2288.6 319.23 2271 316 curveto
1974.96 261.63 1217.71 293.19 917 280 curveto
798.54 274.8 656.73 264.91 603.54 261.08 curveto
stroke
grestore
% R84
gsave
1 setlinewidth
0 0 0 nodecolor
2467 179.5 21.5 21.5 ellipse_path stroke
0 0 0 nodecolor
6 /Times-Roman set_font
2462 181.7 moveto 10 (R84) alignedtext
0 0 0 nodecolor
6 /Times-Roman set_font
2456 174.7 moveto 22 (6109 ms) alignedtext
grestore
% R34--R84
gsave
1 setlinewidth
dotted
0 0 0 edgecolor
newpath 2354.01 323.98 moveto
2378.15 293.32 2429.64 227.94 2453.87 197.17 curveto
stroke
grestore
% R47
gsave
1 setlinewidth
0 0 0 nodecolor
2281 424.5 21.5 21.5 ellipse_path stroke
0 0 0 nodecolor
6 /Times-Roman set_font
2276 426.7 moveto 10 (R47) alignedtext
0 0 0 nodecolor
6 /Times-Roman set_font
2268.5 419.7 moveto 25 (19639 ms) alignedtext
grestore
% R35--R47
gsave
1 setlinewidth
dotted
0 0 0 edgecolor
newpath 1727.51 500.6 moveto
1811.29 493.1 2115.86 465.1 2211 446 curveto
2228.01 442.58 2246.86 436.95 2260.71 432.46 curveto
stroke
grestore
% R35--R66
gsave
1 setlinewidth
dotted
0 0 0 edgecolor
newpath 1684.87 498.05 moveto
1660.99 493.21 1620.89 485.69 1586 482 curveto
1202.03 441.41 1097.63 516.46 718 446 curveto
610.08 425.97 548.01 456.17 484 367 curveto
476.19 356.12 482.37 252.15 488 237 curveto
494.07 220.69 506.66 205.32 516.82 194.74 curveto
stroke
grestore
% R35--R68
gsave
1 setlinewidth
dotted
0 0 0 edgecolor
newpath 1727.12 498.99 moveto
1772.2 491.27 1881 471.47 1970 446 curveto
2024.06 430.52 2035.69 420.89 2089 403 curveto
2140.18 385.82 2156.37 390.44 2205 367 curveto
2211.67 363.78 2218.51 359.44 2224.41 355.3 curveto
stroke
grestore
% R35--R74
gsave
1 setlinewidth
dotted
0 0 0 edgecolor
newpath 1705.68 481.87 moveto
1704.78 423.85 1702.23 259.7 1701.32 201.38 curveto
stroke
grestore
% R35--R90
gsave
2 setlinewidth
bold
0 0 0 edgecolor
newpath 1684.74 498.82 moveto
1625.03 488.35 1458.68 458.43 1437 446 curveto
1414.62 433.17 1419.21 417.68 1398 403 curveto
1362.24 378.25 1333.86 401.21 1307 367 curveto
1249.13 293.28 1273.6 169.53 1286.22 121.45 curveto
stroke
grestore
% R36--R39
gsave
1 setlinewidth
dotted
0 0 0 edgecolor
newpath 3505.33 490.62 moveto
3499.69 487.34 3493.28 484.1 3487 482 curveto
3466.87 475.27 3154.33 438.05 3069.24 428 curveto
stroke
grestore
% R37--R47
gsave
2 setlinewidth
bold
0 0 0 edgecolor
newpath 2739.76 499.09 moveto
2660.38 486.36 2381.69 441.65 2302.27 428.91 curveto
stroke
grestore
% R37--R64
gsave
2 setlinewidth
bold
0 0 0 edgecolor
newpath 2772.12 485.03 moveto
2780.08 472.51 2790.76 455.73 2798.76 443.17 curveto
stroke
grestore
% R38
gsave
1 setlinewidth
0 0 0 nodecolor
658 341.5 21.5 21.5 ellipse_path stroke
0 0 0 nodecolor
6 /Times-Roman set_font
653 343.7 moveto 10 (R38) alignedtext
0 0 0 nodecolor
6 /Times-Roman set_font
645.5 336.7 moveto 25 (16424 ms) alignedtext
grestore
% R70
gsave
1 setlinewidth
0 0 0 nodecolor
2241 258.5 21.5 21.5 ellipse_path stroke
0 0 0 nodecolor
6 /Times-Roman set_font
2236 260.7 moveto 10 (R70) alignedtext
0 0 0 nodecolor
6 /Times-Roman set_font
2228.5 253.7 moveto 25 (17342 ms) alignedtext
grestore
% R38--R70
gsave
1 setlinewidth
dotted
0 0 0 edgecolor
newpath 679.59 338.35 moveto
728.53 333.55 851.7 321.94 955 316 curveto
1444.67 287.83 1568.79 315.33 2058 280 curveto
2116.67 275.76 2185.54 267.03 2219.64 262.45 curveto
stroke
grestore
% R38--R73
gsave
2 setlinewidth
bold
0 0 0 edgecolor
newpath 643.7 325.26 moveto
630.12 310.78 609.8 289.13 596.23 274.67 curveto
stroke
grestore
% R38--R82
gsave
1 setlinewidth
dotted
0 0 0 edgecolor
newpath 661.2 320.12 moveto
670.21 262.82 695.7 100.71 704.76 43.12 curveto
stroke
grestore
% R39--R55
gsave
2 setlinewidth
bold
0 0 0 edgecolor
newpath 3068.27 416.17 moveto
3110.92 400.75 3209.47 365.11 3251.93 349.76 curveto
stroke
grestore
% R39--R78
gsave
1 setlinewidth
dotted
0 0 0 edgecolor
newpath 3047.65 402.96 moveto
3045.99 377.91 3039.03 336.39 3012 316 curveto
2940.79 262.28 2298.93 287 2210 280 curveto
2151.67 275.41 2083.17 266.83 2049.25 262.36 curveto
stroke
grestore
% R39--R88
gsave
1 setlinewidth
dotted
0 0 0 edgecolor
newpath 3065.8 412.22 moveto
3085.44 399.4 3115.17 378.74 3122 367 curveto
3168.89 286.38 3164.41 169.18 3160.27 122.16 curveto
stroke
grestore
% R39--R92
gsave
1 setlinewidth
dotted
0 0 0 edgecolor
newpath 3049.27 402.91 moveto
3050.06 380.99 3049.75 345.47 3042 316 curveto
3012.44 203.6 2937.58 83.49 2908.65 39.71 curveto
stroke
grestore
% R39--R95
gsave
1 setlinewidth
dotted
0 0 0 edgecolor
newpath 3034.64 407.11 moveto
3023.12 392.96 3006.57 372.65 2995.11 358.59 curveto
stroke
grestore
% R40--R42
gsave
1 setlinewidth
dotted
0 0 0 edgecolor
newpath 3054.03 497.59 moveto
3032.37 492.74 2997.52 485.55 2967 482 curveto
2786.49 461 2322.41 503.47 2150 446 curveto
2145.21 444.4 2140.49 441.8 2136.25 438.98 curveto
stroke
grestore
% R40--R55
gsave
1 setlinewidth
dotted
0 0 0 edgecolor
newpath 3086.42 485.06 moveto
3101.26 463.5 3128.96 426.75 3160 403 curveto
3189.68 380.29 3203.56 385.57 3236 367 curveto
3242.3 363.39 3248.94 359.05 3254.77 355.02 curveto
stroke
grestore
% R40--R62
gsave
2 setlinewidth
bold
0 0 0 edgecolor
newpath 3056.8 491.47 moveto
3032.66 476.83 2990.29 451.14 2966.16 436.51 curveto
stroke
grestore
% R40--R93
gsave
1 setlinewidth
dotted
0 0 0 edgecolor
newpath 3092.34 490.72 moveto
3112.03 477.22 3142.73 455.71 3153 446 curveto
3170.91 429.07 3167.62 416.85 3188 403 curveto
3231.95 373.14 3262.85 402.93 3302 367 curveto
3327.74 343.37 3360.13 243.31 3373.17 200.29 curveto
stroke
grestore
% R41--R94
gsave
2 setlinewidth
bold
0 0 0 edgecolor
newpath 1459.45 319.64 moveto
1458.55 307.45 1457.42 292.13 1456.52 280.01 curveto
stroke
grestore
% R41--R96
gsave
2 setlinewidth
bold
0 0 0 edgecolor
newpath 1470.97 322.02 moveto
1480.9 301.2 1493.52 266.41 1485 237 curveto
1470.21 185.97 1426.49 138.66 1402.75 115.82 curveto
stroke
grestore
% R42--R63
gsave
2 setlinewidth
bold
0 0 0 edgecolor
newpath 2136.4 410.41 moveto
2140.63 407.58 2145.31 404.87 2150 403 curveto
2242.4 366.04 2280.31 407.97 2371 367 curveto
2420.06 344.83 2465.92 299.43 2488.09 275.33 curveto
stroke
grestore
% R42--R75
gsave
1 setlinewidth
dotted
0 0 0 edgecolor
newpath 2102.74 411.55 moveto
2080.62 396.23 2042.49 369.84 2020.33 354.5 curveto
stroke
grestore
% R43--R48
gsave
1 setlinewidth
dotted
0 0 0 edgecolor
newpath 1387.94 416.26 moveto
1401.56 411.64 1420.14 405.97 1437 403 curveto
1698.34 356.91 1772.84 419.33 2033 367 curveto
2050.55 363.47 2069.67 356.55 2083.5 350.96 curveto
stroke
grestore
% R43--R57
gsave
2 setlinewidth
bold
0 0 0 edgecolor
newpath 1350.58 411.32 moveto
1346.23 408.46 1341.51 405.51 1337 403 curveto
1303.65 384.42 1289.49 389.97 1259 367 curveto
1235.09 348.99 1240.77 331.23 1215 316 curveto
1172.88 291.11 1024.98 269.61 969.36 262.23 curveto
stroke
grestore
% R43--R69
gsave
1 setlinewidth
dotted
0 0 0 edgecolor
newpath 1351.29 410.75 moveto
1346.83 407.83 1341.9 405.01 1337 403 curveto
1260.31 371.54 1235.08 384.25 1154 367 curveto
1123.99 360.61 1089.41 352.57 1067.87 347.48 curveto
stroke
grestore
% R43--R72
gsave
1 setlinewidth
dotted
0 0 0 edgecolor
newpath 1366.23 403.06 moveto
1365.17 390.78 1363.83 375.21 1362.77 362.93 curveto
stroke
grestore
% R44--R56
gsave
2 setlinewidth
bold
0 0 0 edgecolor
newpath 2957.8 497.78 moveto
2979.27 493.08 3013.81 486.01 3044 482 curveto
3256.51 453.78 3319.96 508.57 3525 446 curveto
3531.47 444.03 3538.04 440.74 3543.77 437.37 curveto
stroke
grestore
% R44--R64
gsave
2 setlinewidth
bold
0 0 0 edgecolor
newpath 2918.8 491.47 moveto
2894.66 476.83 2852.29 451.14 2828.16 436.51 curveto
stroke
grestore
% R44--R95
gsave
1 setlinewidth
dotted
0 0 0 edgecolor
newpath 2926.99 484.2 moveto
2917.2 463.69 2905.32 429.82 2917 403 curveto
2922.11 391.27 2947.92 369.31 2965.44 355.32 curveto
stroke
grestore
% R45--R73
gsave
1 setlinewidth
dotted
0 0 0 edgecolor
newpath 793.37 410.55 moveto
788.91 407.64 783.95 404.87 779 403 curveto
724.22 382.34 556.47 411.14 518 367 curveto
503.11 349.91 508.68 336.66 518 316 curveto
527.26 295.46 548.09 279.4 563.48 269.73 curveto
stroke
grestore
% R45--R88
gsave
1 setlinewidth
dotted
0 0 0 edgecolor
newpath 831.72 421.98 moveto
886.02 418.23 1032.07 408.44 1154 403 curveto
1289.15 396.98 2242.71 409.93 2371 367 curveto
2408.19 354.56 2408.14 333.96 2443 316 curveto
2490.48 291.54 2619.29 253.76 2670 237 curveto
2720.85 220.2 2735.03 220.28 2785 201 curveto
2827.49 184.61 2834.7 172.1 2878 158 curveto
2955.99 132.61 2978.62 138.32 3059 122 curveto
3086.01 116.52 3117.12 110.05 3137.15 105.87 curveto
stroke
grestore
% R45--R90
gsave
1 setlinewidth
dotted
0 0 0 edgecolor
newpath 808.81 402.67 moveto
807.17 352.05 810.68 222.08 884 158 curveto
942.35 107 1194.37 101.86 1270.28 101.48 curveto
stroke
grestore
% R45--R98
gsave
1 setlinewidth
dotted
0 0 0 edgecolor
newpath 831.14 419.14 moveto
876.31 409.79 985.59 387.04 1077 367 curveto
1107.24 360.37 1142.16 352.39 1163.91 347.38 curveto
stroke
grestore
% R46--R72
gsave
1 setlinewidth
dotted
0 0 0 edgecolor
newpath 1263.47 411.2 moveto
1285.21 395.88 1322.11 369.9 1343.75 354.65 curveto
stroke
grestore
% R89
gsave
1 setlinewidth
0 0 0 nodecolor
1617 179.5 21.5 21.5 ellipse_path stroke
0 0 0 nodecolor
6 /Times-Roman set_font
1612 181.7 moveto 10 (R89) alignedtext
0 0 0 nodecolor
6 /Times-Roman set_font
1604.5 174.7 moveto 25 (16497 ms) alignedtext
grestore
% R46--R89
gsave
2 setlinewidth
bold
0 0 0 edgecolor
newpath 1262.4 410.43 moveto
1266.63 407.59 1271.32 404.88 1276 403 curveto
1365.88 366.82 1409.5 419.39 1491 367 curveto
1555.26 325.69 1594.86 238.71 1609.98 199.9 curveto
stroke
grestore
% R47--R48
gsave
1 setlinewidth
dotted
0 0 0 edgecolor
newpath 2262.91 412.66 moveto
2257.25 409.41 2250.93 405.94 2245 403 curveto
2202.5 381.93 2150.89 361.08 2123.08 350.21 curveto
stroke
grestore
% R47--R68
gsave
1 setlinewidth
dotted
0 0 0 edgecolor
newpath 2271.72 404.71 moveto
2265.26 391.63 2256.68 374.25 2250.23 361.18 curveto
stroke
grestore
% R47--R76
gsave
1 setlinewidth
dotted
0 0 0 edgecolor
newpath 2261.1 416.15 moveto
2247.26 411.42 2228.27 405.67 2211 403 curveto
2121.65 389.18 662.59 411.69 584 367 curveto
534.03 338.58 453.32 175.9 426.77 120.2 curveto
stroke
grestore
% R47--R81
gsave
1 setlinewidth
dotted
0 0 0 edgecolor
newpath 2301.85 418.68 moveto
2364.1 404.27 2548.16 361.67 2610.26 347.3 curveto
stroke
grestore
% R48--R58
gsave
1 setlinewidth
dotted
0 0 0 edgecolor
newpath 2082.91 333.05 moveto
2068.98 327.99 2049.96 321.29 2033 316 curveto
1965.73 295.03 1884.84 274.07 1847.6 264.65 curveto
stroke
grestore
% R48--R93
gsave
2 setlinewidth
bold
0 0 0 edgecolor
newpath 2114.69 323.03 moveto
2132.15 298.66 2167.54 255.38 2210 237 curveto
2213.43 235.52 3198.78 189 3357.53 181.51 curveto
stroke
grestore
% R49--R51
gsave
2 setlinewidth
bold
0 0 0 edgecolor
newpath 1290.36 410.55 moveto
1285.91 407.64 1280.95 404.87 1276 403 curveto
1166.86 361.8 1122.93 413.63 1016 367 curveto
1010.58 364.63 1005.34 361 1000.79 357.25 curveto
stroke
grestore
% R49--R58
gsave
2 setlinewidth
bold
0 0 0 edgecolor
newpath 1323.39 410.4 moveto
1327.62 407.57 1332.31 404.87 1337 403 curveto
1431.5 365.4 1465.04 394.36 1563 367 curveto
1658.09 340.44 1765.3 289.99 1807.99 269.02 curveto
stroke
grestore
% R49--R98
gsave
1 setlinewidth
dotted
0 0 0 edgecolor
newpath 1289.3 411.78 moveto
1284.96 408.9 1280.31 405.84 1276 403 curveto
1251.59 386.94 1245.3 383.22 1221 367 curveto
1214.96 362.97 1208.39 358.52 1202.54 354.53 curveto
stroke
grestore
% R50--R60
gsave
2 setlinewidth
bold
0 0 0 edgecolor
newpath 3443.28 417.28 moveto
3458.07 412.9 3478.65 407.09 3497 403 curveto
3622.4 375.02 3775.23 352.98 3830.65 345.37 curveto
stroke
grestore
% R51--R57
gsave
2 setlinewidth
bold
0 0 0 edgecolor
newpath 977.19 321.71 moveto
971.05 308.63 962.89 291.25 956.77 278.18 curveto
stroke
grestore
% R51--R86
gsave
1 setlinewidth
dotted
0 0 0 edgecolor
newpath 1001.72 326.64 moveto
1006.2 322.98 1011.17 319.18 1016 316 curveto
1045.74 296.45 1083.07 278.36 1105.42 268.15 curveto
stroke
grestore
% R52--R58
gsave
1 setlinewidth
dotted
0 0 0 edgecolor
newpath 1827 319.64 moveto
1827 307.45 1827 292.13 1827 280.01 curveto
stroke
grestore
% R53--R69
gsave
1 setlinewidth
dotted
0 0 0 edgecolor
newpath 1447.67 416.74 moveto
1433.8 412.32 1414.95 406.71 1398 403 curveto
1290.92 379.54 1261.73 387.25 1154 367 curveto
1123.85 361.33 1089.3 353.1 1067.81 347.78 curveto
stroke
grestore
% R53--R72
gsave
1 setlinewidth
dotted
0 0 0 edgecolor
newpath 1451.28 410.84 moveto
1431.3 395.72 1398.04 370.54 1377.95 355.33 curveto
stroke
grestore
% R53--R77
gsave
2 setlinewidth
bold
0 0 0 edgecolor
newpath 1488.77 418.57 moveto
1510.23 413.71 1544.75 406.51 1575 403 curveto
1670.89 391.89 2357.65 412.08 2443 367 curveto
2467.99 353.8 2457.04 331 2481 316 curveto
2553.48 270.63 2586.03 296.17 2670 280 curveto
2948.77 226.33 3017.63 208.45 3297 158 curveto
3416.78 136.37 3560.93 113.33 3614.55 104.87 curveto
stroke
grestore
% R53--R85
gsave
1 setlinewidth
dotted
0 0 0 edgecolor
newpath 1488.77 418.56 moveto
1510.23 413.69 1544.75 406.48 1575 403 curveto
1775.17 379.98 2284.47 411.42 2481 367 curveto
2537.13 354.31 2543.97 329.12 2600 316 curveto
2800.23 269.12 3472.87 260.84 3602.34 259.67 curveto
stroke
grestore
% R53--R90
gsave
2 setlinewidth
bold
0 0 0 edgecolor
newpath 1450.02 412.42 moveto
1444.36 409.17 1438.02 405.75 1432 403 curveto
1388.27 383.03 1360.48 404.17 1330 367 curveto
1299.29 329.55 1293.4 177.69 1292.27 122.05 curveto
stroke
grestore
% R55--R63
gsave
1 setlinewidth
dotted
0 0 0 edgecolor
newpath 3251.1 335.08 moveto
3228.71 329.47 3192.08 320.86 3160 316 curveto
2911.74 278.35 2606.7 263.77 2523.7 260.34 curveto
stroke
grestore
% R55--R77
gsave
1 setlinewidth
dotted
0 0 0 edgecolor
newpath 3270.78 319.8 moveto
3270.28 298.27 3271.68 263.99 3283 237 curveto
3300.59 195.07 3308.96 181.3 3348 158 curveto
3436.17 105.39 3563.97 100.59 3614.39 100.94 curveto
stroke
grestore
% R55--R93
gsave
1 setlinewidth
dotted
0 0 0 edgecolor
newpath 3275.53 320.27 moveto
3280.14 298.2 3289.85 262.61 3308 237 curveto
3321.94 217.34 3344.58 201 3360.54 191.03 curveto
stroke
grestore
% R55--R96
gsave
2 setlinewidth
bold
0 0 0 edgecolor
newpath 3256.04 326.98 moveto
3212.64 291.19 3087.46 194.22 2964 158 curveto
2808.08 112.26 1586.71 102.77 1408.63 101.63 curveto
stroke
grestore
% R57--R74
gsave
1 setlinewidth
dotted
0 0 0 edgecolor
newpath 969.22 254.02 moveto
997.58 249.47 1049.44 241.57 1094 237 curveto
1339.01 211.86 1406.32 253.29 1647 201 curveto
1658.76 198.45 1671.36 193.78 1681.43 189.55 curveto
stroke
grestore
% R57--R82
gsave
1 setlinewidth
dotted
0 0 0 edgecolor
newpath 932.99 242.8 moveto
889.89 200.6 766.1 79.39 723.01 37.19 curveto
stroke
grestore
% R87
gsave
1 setlinewidth
0 0 0 nodecolor
948 179.5 21.5 21.5 ellipse_path stroke
0 0 0 nodecolor
6 /Times-Roman set_font
943 181.7 moveto 10 (R87) alignedtext
0 0 0 nodecolor
6 /Times-Roman set_font
937 174.7 moveto 22 (8828 ms) alignedtext
grestore
% R57--R87
gsave
2 setlinewidth
bold
0 0 0 edgecolor
newpath 948 236.87 moveto
948 225.82 948 212.25 948 201.19 curveto
stroke
grestore
% R58--R66
gsave
1 setlinewidth
dotted
0 0 0 edgecolor
newpath 1805.39 256.2 moveto
1751.38 252.95 1606.13 244.22 1485 237 curveto
1111.91 214.76 656.66 187.86 553.47 181.77 curveto
stroke
grestore
% R67
gsave
1 setlinewidth
0 0 0 nodecolor
2909 179.5 21.5 21.5 ellipse_path stroke
0 0 0 nodecolor
6 /Times-Roman set_font
2904 181.7 moveto 10 (R67) alignedtext
0 0 0 nodecolor
6 /Times-Roman set_font
2896.5 174.7 moveto 25 (10339 ms) alignedtext
grestore
% R58--R67
gsave
1 setlinewidth
dotted
0 0 0 edgecolor
newpath 1848.16 254.55 moveto
1880.27 250.16 1943.27 241.9 1997 237 curveto
2178.28 220.47 2767.49 188.17 2887.53 181.66 curveto
stroke
grestore
% R58--R74
gsave
1 setlinewidth
dotted
0 0 0 edgecolor
newpath 1808.95 246.47 moveto
1784.99 231.83 1742.95 206.14 1719.02 191.51 curveto
stroke
grestore
% R61
gsave
1 setlinewidth
0 0 0 nodecolor
4088 258.5 21.5 21.5 ellipse_path stroke
0 0 0 nodecolor
6 /Times-Roman set_font
4083 260.7 moveto 10 (R61) alignedtext
0 0 0 nodecolor
6 /Times-Roman set_font
4077 253.7 moveto 22 (5419 ms) alignedtext
grestore
% R59--R61
gsave
2 setlinewidth
bold
0 0 0 edgecolor
newpath 4102.11 316.64 moveto
4099.2 304.88 4095.74 290.85 4092.97 279.64 curveto
stroke
grestore
% R59--R71
gsave
2 setlinewidth
bold
0 0 0 edgecolor
newpath 4087.1 326.39 moveto
4064 310.8 4027.2 285.96 4005.55 271.34 curveto
stroke
grestore
% R59--R85
gsave
2 setlinewidth
bold
0 0 0 edgecolor
newpath 4083 336.32 moveto
3998.41 322.16 3723.84 276.21 3645.22 263.05 curveto
stroke
grestore
% R59--R97
gsave
2 setlinewidth
bold
0 0 0 edgecolor
newpath 4120.58 319.02 moveto
4140.27 282.29 4172.59 206.7 4137 158 curveto
4087.02 89.61 3812.14 39.16 3733.2 25.93 curveto
stroke
grestore
% R60--R71
gsave
1 setlinewidth
dotted
0 0 0 edgecolor
newpath 3870.06 329.74 moveto
3896.07 314.25 3943.81 285.82 3969.87 270.3 curveto
stroke
grestore
% R60--R88
gsave
1 setlinewidth
dotted
0 0 0 edgecolor
newpath 3834.75 328.02 moveto
3828.91 324 3822.28 319.64 3816 316 curveto
3746.71 275.81 3728.31 266.92 3654 237 curveto
3476.8 165.64 3249.25 118.9 3179.36 105.48 curveto
stroke
grestore
% R61--R79
gsave
2 setlinewidth
bold
0 0 0 edgecolor
newpath 4092.99 237.27 moveto
4095.78 225.95 4099.25 211.89 4102.04 200.6 curveto
stroke
grestore
% R61--R93
gsave
1 setlinewidth
dotted
0 0 0 edgecolor
newpath 4067.74 250.41 moveto
4053.9 245.86 4035.05 240.22 4018 237 curveto
3778.88 191.87 3482.44 182.62 3400.72 180.88 curveto
stroke
grestore
% R61--R97
gsave
1 setlinewidth
dotted
0 0 0 edgecolor
newpath 4069.86 246.17 moveto
4006.2 206.37 3793.33 73.33 3729.95 33.72 curveto
stroke
grestore
% R62--R65
gsave
1 setlinewidth
dotted
0 0 0 edgecolor
newpath 2941.46 403.89 moveto
2937.25 391.25 2931.79 374.87 2927.57 362.21 curveto
stroke
grestore
% R62--R68
gsave
1 setlinewidth
dotted
0 0 0 edgecolor
newpath 2927.01 418.74 moveto
2905.34 414.01 2870.48 406.91 2840 403 curveto
2605.82 372.93 2541.18 414.95 2310 367 curveto
2292.82 363.44 2274.11 356.6 2260.52 351.05 curveto
stroke
grestore
% R63--R74
gsave
1 setlinewidth
dotted
0 0 0 edgecolor
newpath 2480.58 255.44 moveto
2367 244.52 1836.23 193.5 1722.49 182.57 curveto
stroke
grestore
% R63--R84
gsave
2 setlinewidth
bold
0 0 0 edgecolor
newpath 2493.35 238.47 moveto
2487.92 226.53 2480.96 211.21 2475.55 199.31 curveto
stroke
grestore
% R63--R97
gsave
1 setlinewidth
dotted
0 0 0 edgecolor
newpath 2522.47 251.49 moveto
2575.63 235.9 2722.47 192.94 2845 158 curveto
2970.17 122.31 2999.06 102.91 3127 79 curveto
3344.65 38.33 3613.65 26.01 3690.56 23.2 curveto
stroke
grestore
% R64--R67
gsave
2 setlinewidth
bold
0 0 0 edgecolor
newpath 2822.54 406.87 moveto
2830.34 395.96 2840.16 381.15 2847 367 curveto
2875 309.1 2895.38 235.35 2904.18 200.48 curveto
stroke
grestore
% R64--R70
gsave
2 setlinewidth
bold
0 0 0 edgecolor
newpath 2795.03 408.71 moveto
2769.8 384.76 2716.11 337.97 2661 316 curveto
2586.93 286.47 2337.2 266.44 2262.37 260.99 curveto
stroke
grestore
% R64--R81
gsave
1 setlinewidth
dotted
0 0 0 edgecolor
newpath 2789.48 417 moveto
2761.13 407.65 2708.76 389.11 2667 367 curveto
2660.45 363.53 2653.64 359.13 2647.73 355.02 curveto
stroke
grestore
% R64--R84
gsave
2 setlinewidth
bold
0 0 0 edgecolor
newpath 2812.4 402.99 moveto
2815.64 364.54 2816.53 281.52 2771 237 curveto
2730.6 197.5 2551.1 184.76 2488.57 181.48 curveto
stroke
grestore
% R64--R92
gsave
1 setlinewidth
dotted
0 0 0 edgecolor
newpath 2814.37 403.34 moveto
2829.23 334.89 2877.62 111.81 2892.57 42.94 curveto
stroke
grestore
% R65--R85
gsave
1 setlinewidth
dotted
0 0 0 edgecolor
newpath 2935.71 325.56 moveto
2940.25 321.81 2945.51 318.22 2951 316 curveto
3073.42 266.49 3501.44 260.36 3602.5 259.61 curveto
stroke
grestore
% R65--R90
gsave
2 setlinewidth
bold
0 0 0 edgecolor
newpath 2930.83 322.2 moveto
2949.07 285.47 2982.51 202.51 2939 158 curveto
2908.25 126.55 1399.38 129.28 1356 122 curveto
1340.81 119.45 1324.27 114.08 1311.81 109.47 curveto
stroke
grestore
% R66--R76
gsave
1 setlinewidth
dotted
0 0 0 edgecolor
newpath 514.19 166.47 moveto
492.77 152 457.05 127.87 435.69 113.45 curveto
stroke
grestore
% R67--R88
gsave
2 setlinewidth
bold
0 0 0 edgecolor
newpath 2929.38 172.2 moveto
2976.18 157.72 3090.95 122.23 3137.69 107.78 curveto
stroke
grestore
% R68--R70
gsave
1 setlinewidth
dotted
0 0 0 edgecolor
newpath 2241 319.64 moveto
2241 307.45 2241 292.13 2241 280.01 curveto
stroke
grestore
% R68--R84
gsave
2 setlinewidth
bold
0 0 0 edgecolor
newpath 2258.37 328.01 moveto
2285.53 308.5 2339.75 269.63 2386 237 curveto
2407.85 221.58 2433.15 203.97 2449.58 192.57 curveto
stroke
grestore
% R69--R73
gsave
2 setlinewidth
bold
0 0 0 edgecolor
newpath 1031.98 325.98 moveto
1027.21 322.14 1021.69 318.4 1016 316 curveto
939.95 283.92 680.42 265.6 603.59 260.79 curveto
stroke
grestore
% R69--R79
gsave
1 setlinewidth
dotted
0 0 0 edgecolor
newpath 1067.77 334.99 moveto
1089.22 329.47 1123.74 321.09 1154 316 curveto
1299.93 291.44 1338.14 298.14 1485 280 curveto
1623.49 262.9 1656.91 248.13 1796 237 curveto
2510.78 179.8 2692.17 219.53 3409 201 curveto
3675.62 194.11 3999.48 183.92 4085.29 181.19 curveto
stroke
grestore
% R69--R90
gsave
1 setlinewidth
dotted
0 0 0 edgecolor
newpath 1052.53 320.42 moveto
1059.43 298.16 1072.93 262.09 1094 237 curveto
1146.23 174.8 1233.77 128.74 1272.53 110.32 curveto
stroke
grestore
% R72--R94
gsave
1 setlinewidth
dotted
0 0 0 edgecolor
newpath 1376.95 326.76 moveto
1394.23 311.86 1421.66 288.23 1438.98 273.31 curveto
stroke
grestore
% R72--R96
gsave
2 setlinewidth
bold
0 0 0 edgecolor
newpath 1363.26 319.71 moveto
1368.19 274.39 1379.85 167.19 1384.76 122.07 curveto
stroke
grestore
% R72--R97
gsave
1 setlinewidth
dotted
0 0 0 edgecolor
newpath 1368.78 321.06 moveto
1378.68 298.38 1397.72 260.94 1424 237 curveto
1483.22 183.05 1508.56 178.49 1586 158 curveto
1800.41 101.26 3479.62 31.88 3690.31 23.37 curveto
stroke
grestore
% R73--R76
gsave
2 setlinewidth
bold
0 0 0 edgecolor
newpath 583.3 236.77 moveto
583.55 214.75 580.56 180.15 562 158 curveto
530.69 120.65 471.39 107.86 439.53 103.58 curveto
stroke
grestore
% R73--R96
gsave
1 setlinewidth
dotted
0 0 0 edgecolor
newpath 601.7 249.19 moveto
649.25 229.55 774.45 180.22 884 158 curveto
1075.42 119.17 1130.33 159.61 1322 122 curveto
1337.44 118.97 1354.38 113.55 1367.1 109.05 curveto
stroke
grestore
% R74--R77
gsave
2 setlinewidth
bold
0 0 0 edgecolor
newpath 1722.83 177.73 moveto
1857.63 172.99 2590.45 147.02 3188 122 curveto
3352.14 115.13 3550.05 105.66 3614.55 102.54 curveto
stroke
grestore
% R74--R90
gsave
1 setlinewidth
dotted
0 0 0 edgecolor
newpath 1681.36 169.74 moveto
1671.28 165.58 1658.68 160.89 1647 158 curveto
1520.51 126.65 1483.28 150 1356 122 curveto
1340.96 118.69 1324.41 113.34 1311.91 108.94 curveto
stroke
grestore
% R74--R96
gsave
1 setlinewidth
dotted
0 0 0 edgecolor
newpath 1681.24 170.19 moveto
1671.12 166.14 1658.54 161.42 1647 158 curveto
1559.76 132.12 1452.82 112.61 1408.16 105 curveto
stroke
grestore
% R75--R78
gsave
1 setlinewidth
dotted
0 0 0 edgecolor
newpath 2009.18 320.48 moveto
2013.05 307.92 2018.03 291.8 2021.89 279.29 curveto
stroke
grestore
% R76--R80
gsave
1 setlinewidth
dotted
0 0 0 edgecolor
newpath 397.1 94.21 moveto
341.43 80.11 190.02 41.75 134.64 27.73 curveto
stroke
grestore
% R77--R82
gsave
2 setlinewidth
bold
0 0 0 edgecolor
newpath 3614.56 98.34 moveto
3550.06 94.9 3352.19 84.63 3188 79 curveto
2166.84 44.01 908.39 25.35 729.53 22.8 curveto
stroke
grestore
% R77--R97
gsave
1 setlinewidth
dotted
0 0 0 edgecolor
newpath 3650.65 84.65 moveto
3664.11 71.02 3683.95 50.92 3697.39 37.3 curveto
stroke
grestore
% R77--R99
gsave
1 setlinewidth
dotted
0 0 0 edgecolor
newpath 3657.43 97.2 moveto
3762.83 85.86 4225.44 36.11 4330.66 24.8 curveto
stroke
grestore
% R78--R89
gsave
1 setlinewidth
dotted
0 0 0 edgecolor
newpath 2006.57 254.73 moveto
1939.57 245.96 1734.71 218.41 1670 201 curveto
1658.57 197.92 1646.21 193.23 1636.3 189.11 curveto
stroke
grestore
% R83--R91
gsave
1 setlinewidth
dotted
0 0 0 edgecolor
newpath 4235.2 238.86 moveto
4241.13 226.84 4248.81 211.27 4254.75 199.23 curveto
stroke
grestore
% R85--R91
gsave
1 setlinewidth
dotted
0 0 0 edgecolor
newpath 3645.55 255.52 moveto
3716.17 248.94 3946.99 226.78 4137 201 curveto
4174.4 195.92 4217.77 188.62 4242.93 184.24 curveto
stroke
grestore
% R85--R93
gsave
1 setlinewidth
dotted
0 0 0 edgecolor
newpath 3603.53 251.07 moveto
3557.3 236.54 3445.25 201.32 3399.24 186.86 curveto
stroke
grestore
% R86--R96
gsave
1 setlinewidth
dotted
0 0 0 edgecolor
newpath 1143.42 246.53 moveto
1191.65 217.82 1321.14 140.71 1368.94 112.25 curveto
stroke
grestore
% R90--R92
gsave
2 setlinewidth
bold
0 0 0 edgecolor
newpath 1311.82 91.6 moveto
1324.29 87.02 1340.83 81.66 1356 79 curveto
1666.84 24.58 2712.03 22.48 2875.43 22.48 curveto
stroke
grestore
% R94--R96
gsave
1 setlinewidth
dotted
0 0 0 edgecolor
newpath 1446.66 238.37 moveto
1433.61 208.43 1408.5 150.82 1395.41 120.79 curveto
stroke
grestore
endpage
showpage
grestore
%%PageTrailer
%%EndPage: 1
%%Trailer
%%Pages: 1
%%BoundingBox: 36 36 4548 806
end
restore
%%EOF
