%!PS-Adobe-3.0
%%Creator: graphviz version 2.38.0 (20140413.2041)
%%Title: solution
%%Pages: (atend)
%%BoundingBox: (atend)
%%EndComments
save
%%BeginProlog
/DotDict 200 dict def
DotDict begin

/setupLatin1 {
mark
/EncodingVector 256 array def
 EncodingVector 0

ISOLatin1Encoding 0 255 getinterval putinterval
EncodingVector 45 /hyphen put

% Set up ISO Latin 1 character encoding
/starnetISO {
        dup dup findfont dup length dict begin
        { 1 index /FID ne { def }{ pop pop } ifelse
        } forall
        /Encoding EncodingVector def
        currentdict end definefont
} def
/Times-Roman starnetISO def
/Times-Italic starnetISO def
/Times-Bold starnetISO def
/Times-BoldItalic starnetISO def
/Helvetica starnetISO def
/Helvetica-Oblique starnetISO def
/Helvetica-Bold starnetISO def
/Helvetica-BoldOblique starnetISO def
/Courier starnetISO def
/Courier-Oblique starnetISO def
/Courier-Bold starnetISO def
/Courier-BoldOblique starnetISO def
cleartomark
} bind def

%%BeginResource: procset graphviz 0 0
/coord-font-family /Times-Roman def
/default-font-family /Times-Roman def
/coordfont coord-font-family findfont 8 scalefont def

/InvScaleFactor 1.0 def
/set_scale {
       dup 1 exch div /InvScaleFactor exch def
       scale
} bind def

% styles
/solid { [] 0 setdash } bind def
/dashed { [9 InvScaleFactor mul dup ] 0 setdash } bind def
/dotted { [1 InvScaleFactor mul 6 InvScaleFactor mul] 0 setdash } bind def
/invis {/fill {newpath} def /stroke {newpath} def /show {pop newpath} def} bind def
/bold { 2 setlinewidth } bind def
/filled { } bind def
/unfilled { } bind def
/rounded { } bind def
/diagonals { } bind def
/tapered { } bind def

% hooks for setting color 
/nodecolor { sethsbcolor } bind def
/edgecolor { sethsbcolor } bind def
/graphcolor { sethsbcolor } bind def
/nopcolor {pop pop pop} bind def

/beginpage {	% i j npages
	/npages exch def
	/j exch def
	/i exch def
	/str 10 string def
	npages 1 gt {
		gsave
			coordfont setfont
			0 0 moveto
			(\() show i str cvs show (,) show j str cvs show (\)) show
		grestore
	} if
} bind def

/set_font {
	findfont exch
	scalefont setfont
} def

% draw text fitted to its expected width
/alignedtext {			% width text
	/text exch def
	/width exch def
	gsave
		width 0 gt {
			[] 0 setdash
			text stringwidth pop width exch sub text length div 0 text ashow
		} if
	grestore
} def

/boxprim {				% xcorner ycorner xsize ysize
		4 2 roll
		moveto
		2 copy
		exch 0 rlineto
		0 exch rlineto
		pop neg 0 rlineto
		closepath
} bind def

/ellipse_path {
	/ry exch def
	/rx exch def
	/y exch def
	/x exch def
	matrix currentmatrix
	newpath
	x y translate
	rx ry scale
	0 0 1 0 360 arc
	setmatrix
} bind def

/endpage { showpage } bind def
/showpage { } def

/layercolorseq
	[	% layer color sequence - darkest to lightest
		[0 0 0]
		[.2 .8 .8]
		[.4 .8 .8]
		[.6 .8 .8]
		[.8 .8 .8]
	]
def

/layerlen layercolorseq length def

/setlayer {/maxlayer exch def /curlayer exch def
	layercolorseq curlayer 1 sub layerlen mod get
	aload pop sethsbcolor
	/nodecolor {nopcolor} def
	/edgecolor {nopcolor} def
	/graphcolor {nopcolor} def
} bind def

/onlayer { curlayer ne {invis} if } def

/onlayers {
	/myupper exch def
	/mylower exch def
	curlayer mylower lt
	curlayer myupper gt
	or
	{invis} if
} def

/curlayer 0 def

%%EndResource
%%EndProlog
%%BeginSetup
14 default-font-family set_font
1 setmiterlimit
% /arrowlength 10 def
% /arrowwidth 5 def

% make sure pdfmark is harmless for PS-interpreters other than Distiller
/pdfmark where {pop} {userdict /pdfmark /cleartomark load put} ifelse
% make '<<' and '>>' safe on PS Level 1 devices
/languagelevel where {pop languagelevel}{1} ifelse
2 lt {
    userdict (<<) cvn ([) cvn load put
    userdict (>>) cvn ([) cvn load put
} if

%%EndSetup
setupLatin1
%%Page: 1 1
%%PageBoundingBox: 36 36 515 490
%%PageOrientation: Portrait
0 0 1 beginpage
gsave
36 36 479 454 boxprim clip newpath
1 1 set_scale 0 rotate 40 40 translate
% R0
gsave
1 setlinewidth
0 0 0 nodecolor
109.5 420.5 21.5 21.5 ellipse_path stroke
0 0 0 nodecolor
6 /Times-Roman set_font
106 422.7 moveto 7 (R0) alignedtext
0 0 0 nodecolor
6 /Times-Roman set_font
97 415.7 moveto 25 (11111 ms) alignedtext
grestore
% R2
gsave
1 setlinewidth
0 0 0 nodecolor
186.5 337.5 21.5 21.5 ellipse_path stroke
0 0 0 nodecolor
6 /Times-Roman set_font
183 339.7 moveto 7 (R2) alignedtext
0 0 0 nodecolor
6 /Times-Roman set_font
174 332.7 moveto 25 (12542 ms) alignedtext
grestore
% R0--R2
gsave
1 setlinewidth
dotted
0 0 0 edgecolor
newpath 123.98 404.26 moveto
137.75 389.78 158.34 368.13 172.08 353.67 curveto
stroke
grestore
% R4
gsave
1 setlinewidth
0 0 0 nodecolor
21.5 179.5 21.5 21.5 ellipse_path stroke
0 0 0 nodecolor
6 /Times-Roman set_font
18 181.7 moveto 7 (R4) alignedtext
0 0 0 nodecolor
6 /Times-Roman set_font
10.5 174.7 moveto 22 (6658 ms) alignedtext
grestore
% R0--R4
gsave
1 setlinewidth
dotted
0 0 0 edgecolor
newpath 93.87 405.65 moveto
82.04 394.29 66.38 377.17 57.5 359 curveto
31.62 306.03 24.34 235.5 22.3 201.11 curveto
stroke
grestore
% R5
gsave
1 setlinewidth
0 0 0 nodecolor
273.5 258.5 21.5 21.5 ellipse_path stroke
0 0 0 nodecolor
6 /Times-Roman set_font
270 260.7 moveto 7 (R5) alignedtext
0 0 0 nodecolor
6 /Times-Roman set_font
261 253.7 moveto 25 (12528 ms) alignedtext
grestore
% R0--R5
gsave
1 setlinewidth
dotted
0 0 0 edgecolor
newpath 129.31 412.1 moveto
152.49 402.65 190.93 384.43 216.5 359 curveto
240.07 335.56 257.15 300.36 266.17 278.72 curveto
stroke
grestore
% R7
gsave
1 setlinewidth
0 0 0 nodecolor
185.5 100.5 21.5 21.5 ellipse_path stroke
0 0 0 nodecolor
6 /Times-Roman set_font
182 102.7 moveto 7 (R7) alignedtext
0 0 0 nodecolor
6 /Times-Roman set_font
174.5 95.7 moveto 22 (6624 ms) alignedtext
grestore
% R0--R7
gsave
2 setlinewidth
bold
0 0 0 edgecolor
newpath 101.96 400.23 moveto
85.47 354.72 51.06 238.37 95.5 158 curveto
103.31 143.87 142.5 122.66 166.52 110.65 curveto
stroke
grestore
% R8
gsave
1 setlinewidth
0 0 0 nodecolor
259.5 100.5 21.5 21.5 ellipse_path stroke
0 0 0 nodecolor
6 /Times-Roman set_font
256 102.7 moveto 7 (R8) alignedtext
0 0 0 nodecolor
6 /Times-Roman set_font
248.5 95.7 moveto 22 (9526 ms) alignedtext
grestore
% R0--R8
gsave
1 setlinewidth
dotted
0 0 0 edgecolor
newpath 117.14 400.09 moveto
134.65 356.16 179.66 246.12 225.5 158 curveto
232.47 144.59 241.29 129.99 248.2 118.99 curveto
stroke
grestore
% R1
gsave
1 setlinewidth
0 0 0 nodecolor
323.5 420.5 21.5 21.5 ellipse_path stroke
1 setlinewidth
0 0 0 nodecolor
323.5 420.5 25.5 25.5 ellipse_path stroke
0 0 0 nodecolor
6 /Times-Roman set_font
320 422.7 moveto 7 (R1) alignedtext
0 0 0 nodecolor
6 /Times-Roman set_font
317 415.7 moveto 13 (0 ms) alignedtext
grestore
% R1--R2
gsave
2 setlinewidth
bold
0 0 0 edgecolor
newpath 301.79 406.67 moveto
274.93 390.78 229.69 364.03 204.61 349.21 curveto
stroke
grestore
% R1--R5
gsave
2 setlinewidth
bold
0 0 0 edgecolor
newpath 316.12 395.89 moveto
306.23 364.25 288.86 308.66 279.65 279.17 curveto
stroke
grestore
% R6
gsave
1 setlinewidth
0 0 0 nodecolor
273.5 179.5 21.5 21.5 ellipse_path stroke
0 0 0 nodecolor
6 /Times-Roman set_font
270 181.7 moveto 7 (R6) alignedtext
0 0 0 nodecolor
6 /Times-Roman set_font
261 174.7 moveto 25 (14983 ms) alignedtext
grestore
% R1--R6
gsave
2 setlinewidth
bold
0 0 0 edgecolor
newpath 323.72 395 moveto
323.39 359.41 320.33 291.68 303.5 237 curveto
299.25 223.2 291.58 208.85 285.06 198.06 curveto
stroke
grestore
% R1--R7
gsave
2 setlinewidth
bold
0 0 0 edgecolor
newpath 329.77 395.67 moveto
341.44 345.44 360.47 227.58 303.5 158 curveto
303.29 157.74 238.05 126.58 204.68 110.65 curveto
stroke
grestore
% R1--R8
gsave
2 setlinewidth
bold
0 0 0 edgecolor
newpath 342.75 403.72 moveto
354.69 392.63 368.95 376.66 375.5 359 curveto
406.55 275.24 422.86 233.75 375.5 158 curveto
354.72 124.76 308.14 110.56 280.75 104.91 curveto
stroke
grestore
% R2--R4
gsave
1 setlinewidth
dotted
0 0 0 edgecolor
newpath 171.27 322.1 moveto
139.84 292.38 68.09 224.55 36.69 194.86 curveto
stroke
grestore
% R2--R5
gsave
1 setlinewidth
dotted
0 0 0 edgecolor
newpath 202.46 322.38 moveto
218.15 308.48 241.98 287.4 257.64 273.53 curveto
stroke
grestore
% R2--R7
gsave
1 setlinewidth
dotted
0 0 0 edgecolor
newpath 186.41 315.65 moveto
186.22 271.05 185.78 166.86 185.59 122.31 curveto
stroke
grestore
% R2--R8
gsave
1 setlinewidth
dotted
0 0 0 edgecolor
newpath 192.6 316.87 moveto
206.34 272.63 239.59 165.58 253.37 121.24 curveto
stroke
grestore
% R3
gsave
1 setlinewidth
0 0 0 nodecolor
449.5 258.5 21.5 21.5 ellipse_path stroke
0 0 0 nodecolor
6 /Times-Roman set_font
446 260.7 moveto 7 (R3) alignedtext
0 0 0 nodecolor
6 /Times-Roman set_font
437 253.7 moveto 25 (16574 ms) alignedtext
grestore
% R3--R6
gsave
2 setlinewidth
bold
0 0 0 edgecolor
newpath 429.99 248.97 moveto
396.07 234.13 326.62 203.74 292.83 188.96 curveto
stroke
grestore
% R9
gsave
1 setlinewidth
0 0 0 nodecolor
259.5 21.5 21.5 21.5 ellipse_path stroke
0 0 0 nodecolor
6 /Times-Roman set_font
256 23.7 moveto 7 (R9) alignedtext
0 0 0 nodecolor
6 /Times-Roman set_font
247 16.7 moveto 25 (17995 ms) alignedtext
grestore
% R3--R9
gsave
1 setlinewidth
dotted
0 0 0 edgecolor
newpath 445.28 237.05 moveto
440.22 215.9 430.26 182.59 413.5 158 curveto
375.4 102.09 309.02 54.53 277.33 33.73 curveto
stroke
grestore
% R4--R7
gsave
2 setlinewidth
bold
0 0 0 edgecolor
newpath 39.62 167.71 moveto
45.28 164.46 51.59 160.98 57.5 158 curveto
95.03 139.09 140.29 119.94 165.69 109.5 curveto
stroke
grestore
% R4--R9
gsave
1 setlinewidth
dotted
0 0 0 edgecolor
newpath 37.73 165.11 moveto
62.23 145.19 110.5 107.08 154.5 79 curveto
183.47 60.52 219.02 42.25 240.43 31.69 curveto
stroke
grestore
% R5--R6
gsave
1 setlinewidth
dotted
0 0 0 edgecolor
newpath 273.5 236.87 moveto
273.5 225.82 273.5 212.25 273.5 201.19 curveto
stroke
grestore
% R6--R7
gsave
1 setlinewidth
dotted
0 0 0 edgecolor
newpath 257.77 164.73 moveto
241.85 150.8 217.37 129.39 201.39 115.41 curveto
stroke
grestore
% R6--R8
gsave
1 setlinewidth
dotted
0 0 0 edgecolor
newpath 269.82 158.27 moveto
267.78 147.04 265.25 133.11 263.2 121.86 curveto
stroke
grestore
% R8--R9
gsave
2 setlinewidth
bold
0 0 0 edgecolor
newpath 259.5 78.87 moveto
259.5 67.82 259.5 54.25 259.5 43.19 curveto
stroke
grestore
endpage
showpage
grestore
%%PageTrailer
%%EndPage: 1
%%Trailer
%%Pages: 1
%%BoundingBox: 36 36 515 490
end
restore
%%EOF
