graph solution {
        node [shape="circle", fontsize="6", width="0.6", fixedsize="true"];
        R0 [label="R0\n20563 ms"];
        R1 [label="R1\n8506 ms"];
        R2 [label="R2\n1723 ms"];
        R3 [label="R3\n8743 ms"];
        R4 [label="R4\n12458 ms"];
        R5 [label="R5\n15877 ms"];
        R6 [label="R6\n8853 ms"];
        R7 [label="R7\n6081 ms"];
        R8 [label="R8\n6929 ms"];
        R9 [label="R9\n9495 ms"];
        R10 [label="R10\n10480 ms"];
        R11 [label="R11\n10951 ms"];
        R12 [label="R12\n9709 ms"];
        R13 [label="R13\n5447 ms"];
        R14 [label="R14\n2926 ms"];
        R15 [label="R15\n12155 ms"];
        R16 [label="R16\n0 ms", shape="doublecircle"];
        R17 [label="R17\n12965 ms"];
        R18 [label="R18\n5817 ms"];
        R19 [label="R19\n20360 ms"];
        R0--R10 [style="bold"];
        R0--R15 [style="dotted"];
        R1--R3 [style="dotted"];
        R1--R4 [style="bold"];
        R1--R6 [style="bold"];
        R1--R7 [style="dotted"];
        R1--R9 [style="dotted"];
        R1--R13 [style="dotted"];
        R1--R14 [style="bold"];
        R1--R15 [style="dotted"];
        R1--R16 [style="dotted"];
        R1--R17 [style="dotted"];
        R1--R19 [style="bold"];
        R2--R16 [style="bold"];
        R2--R18 [style="bold"];
        R3--R6 [style="dotted"];
        R3--R9 [style="dotted"];
        R3--R12 [style="dotted"];
        R3--R13 [style="bold"];
        R3--R14 [style="dotted"];
        R3--R15 [style="bold"];
        R3--R17 [style="dotted"];
        R4--R5 [style="bold"];
        R4--R8 [style="dotted"];
        R4--R10 [style="dotted"];
        R4--R17 [style="bold"];
        R5--R12 [style="dotted"];
        R6--R7 [style="dotted"];
        R6--R10 [style="dotted"];
        R6--R11 [style="dotted"];
        R6--R14 [style="dotted"];
        R7--R8 [style="bold"];
        R7--R11 [style="bold"];
        R7--R13 [style="dotted"];
        R7--R14 [style="dotted"];
        R7--R15 [style="dotted"];
        R7--R18 [style="bold"];
        R8--R9 [style="bold"];
        R8--R14 [style="dotted"];
        R9--R17 [style="dotted"];
        R10--R11 [style="dotted"];
        R10--R13 [style="bold"];
        R10--R18 [style="dotted"];
        R12--R14 [style="bold"];
        R12--R15 [style="dotted"];
        R13--R14 [style="bold"];
        R14--R16 [style="bold"];
        R14--R17 [style="dotted"];
        R17--R19 [style="dotted"];
}

